<svg width="1306" height="637" viewBox="0 0 1306 637" fill="none" xmlns="http://www.w3.org/2000/svg">
<path d="M48.2988 637.472L1301.34 637.472" stroke="#EB2136" stroke-width="3" stroke-linecap="round" stroke-linejoin="round"/>
<path d="M525.666 593.914L569.831 441.604" stroke="#0019FF" stroke-linecap="round" stroke-linejoin="round"/>
<path d="M484.791 593.914L569.835 441.604" stroke="#0019FF" stroke-linecap="round" stroke-linejoin="round"/>
<path d="M443.91 593.914L569.833 441.604" stroke="#0019FF" stroke-linecap="round" stroke-linejoin="round"/>
<path d="M403.029 593.914L569.832 441.604" stroke="#0019FF" stroke-linecap="round" stroke-linejoin="round"/>
<path d="M362.17 593.914L569.833 441.604" stroke="#0019FF" stroke-linecap="round" stroke-linejoin="round"/>
<path d="M321.291 593.914L569.833 441.604" stroke="#0019FF" stroke-linecap="round" stroke-linejoin="round"/>
<path d="M280.414 593.914L569.835 441.604" stroke="#0019FF" stroke-linecap="round" stroke-linejoin="round"/>
<path d="M241.389 593.913L327.027 548.844" stroke="#0019FF" stroke-linecap="round" stroke-linejoin="round"/>
<path d="M200.529 593.913L242.318 571.908" stroke="#0019FF" stroke-linecap="round" stroke-linejoin="round"/>
<path d="M564.709 593.913L564.375 604.127" stroke="#0019FF" stroke-linecap="round" stroke-linejoin="round"/>
<path d="M584.442 604.127L584.09 593.913" stroke="#0019FF" stroke-linecap="round" stroke-linejoin="round"/>
<path d="M648.047 299.47C644.973 299.468 641.93 300.071 639.09 301.246C636.249 302.421 633.668 304.144 631.494 306.317C629.32 308.49 627.596 311.07 626.419 313.91C625.242 316.75 624.637 319.794 624.637 322.868H671.438C671.438 319.796 670.833 316.753 669.657 313.914C668.482 311.075 666.759 308.496 664.587 306.323C662.415 304.151 659.836 302.427 656.998 301.251C654.16 300.075 651.118 299.47 648.047 299.47V299.47Z" stroke="#EB2136" stroke-miterlimit="10"/>
<path d="M694.863 299.47C691.79 299.468 688.746 300.071 685.906 301.246C683.066 302.421 680.485 304.144 678.311 306.317C676.137 308.49 674.412 311.07 673.235 313.91C672.059 316.75 671.453 319.794 671.453 322.868H718.254C718.254 319.796 717.649 316.753 716.474 313.914C715.298 311.075 713.575 308.496 711.403 306.323C709.231 304.151 706.653 302.427 703.815 301.251C700.977 300.075 697.935 299.47 694.863 299.47Z" stroke="#EB2136" stroke-miterlimit="10"/>
<path d="M644.518 333.267C643.271 335.562 642.487 338.079 642.213 340.677C641.939 343.274 642.18 345.9 642.921 348.404C643.663 350.909 644.89 353.242 646.534 355.272C648.178 357.301 650.206 358.986 652.501 360.231L671.455 325.282C666.824 322.772 661.386 322.204 656.335 323.701C651.285 325.198 647.035 328.639 644.518 333.267V333.267Z" stroke="#EB2136" stroke-miterlimit="10"/>
<path d="M698.409 333.267C700.924 337.902 701.496 343.346 699.999 348.402C698.502 353.459 695.058 357.713 690.426 360.231L671.453 325.282C676.086 322.767 681.529 322.195 686.584 323.692C691.639 325.189 695.892 328.634 698.409 333.267V333.267Z" stroke="#EB2136" stroke-miterlimit="10"/>
<path d="M648.047 299.47C644.973 299.468 641.93 300.071 639.09 301.246C636.249 302.421 633.668 304.144 631.494 306.317C629.32 308.49 627.596 311.07 626.419 313.91C625.242 316.75 624.637 319.794 624.637 322.868H671.438C671.438 319.796 670.833 316.753 669.657 313.914C668.482 311.075 666.759 308.496 664.587 306.323C662.415 304.151 659.836 302.427 656.998 301.251C654.16 300.075 651.118 299.47 648.047 299.47Z" fill="#FBF8F8" stroke="#EB2136" stroke-width="3" stroke-linecap="round" stroke-linejoin="round"/>
<path d="M694.863 299.47C691.79 299.468 688.746 300.071 685.906 301.246C683.066 302.421 680.485 304.144 678.311 306.317C676.137 308.49 674.412 311.07 673.235 313.91C672.059 316.75 671.453 319.794 671.453 322.868H718.254C718.254 319.796 717.649 316.753 716.474 313.914C715.298 311.075 713.575 308.496 711.403 306.323C709.231 304.151 706.653 302.427 703.815 301.251C700.977 300.075 697.935 299.47 694.863 299.47Z" fill="#FBF8F8" stroke="#EB2136" stroke-width="3" stroke-linecap="round" stroke-linejoin="round"/>
<path d="M644.518 333.267C643.271 335.562 642.487 338.079 642.213 340.677C641.939 343.274 642.18 345.9 642.921 348.404C643.663 350.909 644.89 353.242 646.534 355.272C648.178 357.301 650.206 358.986 652.501 360.231L671.455 325.282C666.824 322.772 661.386 322.204 656.335 323.701C651.285 325.198 647.035 328.639 644.518 333.267Z" fill="#FBF8F8" stroke="#EB2136" stroke-width="3" stroke-linecap="round" stroke-linejoin="round"/>
<path d="M698.409 333.267C700.924 337.902 701.496 343.346 699.999 348.402C698.502 353.459 695.058 357.713 690.426 360.231L671.453 325.282C676.086 322.767 681.529 322.195 686.584 323.692C691.639 325.189 695.892 328.634 698.409 333.267Z" fill="#FBF8F8" stroke="#EB2136" stroke-width="3" stroke-linecap="round" stroke-linejoin="round"/>
<path d="M671.453 637.088V324.038" stroke="#EB2136" stroke-linecap="round" stroke-linejoin="round"/>
<path d="M962.305 44.7106L897.329 2L871.339 39.1397L842.248 157.987L828.641 599.949H841.636V637.088H903.827H954.879H1008.72V614.804L1031.92 359.469L962.305 44.7106Z" fill="#FBF8F8" stroke="#EB2136" stroke-miterlimit="10"/>
<path d="M841.617 599.949H903.808" stroke="#EB2136" stroke-linecap="round" stroke-linejoin="round"/>
<path d="M903.826 637.088V172.842L842.248 157.987" stroke="#EB2136" stroke-linecap="round" stroke-linejoin="round"/>
<path d="M903.828 172.842L927.962 66.0659V544.239L954.881 614.805H1008.72" stroke="#EB2136" stroke-linecap="round" stroke-linejoin="round"/>
<path d="M897.328 2L927.96 66.0659L871.338 39.1397" stroke="#EB2136" stroke-linecap="round" stroke-linejoin="round"/>
<path d="M962.284 44.7106L927.939 66.0659" stroke="#EB2136" stroke-linecap="round" stroke-linejoin="round"/>
<path d="M954.861 637.088V614.805" stroke="#EB2136" stroke-linecap="round" stroke-linejoin="round"/>
<path d="M1031.9 359.469L927.939 291.689" stroke="#EB2136" stroke-linecap="round" stroke-linejoin="round"/>
<path d="M1030.64 373.285L927.939 306.341" stroke="#EB2136" stroke-linecap="round" stroke-linejoin="round"/>
<path d="M1029.39 387.138L927.939 320.993" stroke="#EB2136" stroke-linecap="round" stroke-linejoin="round"/>
<path d="M1028.15 400.973L927.939 335.644" stroke="#EB2136" stroke-linecap="round" stroke-linejoin="round"/>
<path d="M1026.89 414.789L927.939 350.296" stroke="#EB2136" stroke-linecap="round" stroke-linejoin="round"/>
<path d="M1025.61 428.623L927.939 364.947" stroke="#EB2136" stroke-linecap="round" stroke-linejoin="round"/>
<path d="M1024.36 442.458L927.939 379.599" stroke="#EB2136" stroke-linecap="round" stroke-linejoin="round"/>
<path d="M1023.12 456.292L927.939 394.251" stroke="#EB2136" stroke-linecap="round" stroke-linejoin="round"/>
<path d="M1021.86 470.127L927.939 408.902" stroke="#EB2136" stroke-linecap="round" stroke-linejoin="round"/>
<path d="M1020.6 483.962L927.939 423.554" stroke="#EB2136" stroke-linecap="round" stroke-linejoin="round"/>
<path d="M1019.35 497.796L927.939 438.224" stroke="#EB2136" stroke-linecap="round" stroke-linejoin="round"/>
<path d="M1018.01 511.593L927.939 452.876" stroke="#EB2136" stroke-linecap="round" stroke-linejoin="round"/>
<path d="M1016.83 525.465L927.939 467.527" stroke="#EB2136" stroke-linecap="round" stroke-linejoin="round"/>
<path d="M1015.56 539.3L927.939 482.179" stroke="#EB2136" stroke-linecap="round" stroke-linejoin="round"/>
<path d="M1014.32 553.134L927.939 496.83" stroke="#EB2136" stroke-linecap="round" stroke-linejoin="round"/>
<path d="M1013.06 566.968L927.939 511.482" stroke="#EB2136" stroke-linecap="round" stroke-linejoin="round"/>
<path d="M1011.8 580.803L927.939 526.134" stroke="#EB2136" stroke-linecap="round" stroke-linejoin="round"/>
<path d="M1010.53 594.638L927.939 540.785" stroke="#EB2136" stroke-linecap="round" stroke-linejoin="round"/>
<path d="M1009.27 608.454L933.643 559.151" stroke="#EB2136" stroke-linecap="round" stroke-linejoin="round"/>
<path d="M996.519 614.805L941.086 578.649" stroke="#EB2136" stroke-linecap="round" stroke-linejoin="round"/>
<path d="M974.04 614.805L948.588 598.203" stroke="#EB2136" stroke-linecap="round" stroke-linejoin="round"/>
<path d="M875.033 165.897L841.766 173.622" stroke="#EB2136" stroke-linecap="round" stroke-linejoin="round"/>
<path d="M903.808 183.687L841.004 198.265" stroke="#EB2136" stroke-linecap="round" stroke-linejoin="round"/>
<path d="M903.809 208.162L840.244 222.925" stroke="#EB2136" stroke-linecap="round" stroke-linejoin="round"/>
<path d="M903.81 232.637L839.484 247.586" stroke="#EB2136" stroke-linecap="round" stroke-linejoin="round"/>
<path d="M903.81 257.112L838.723 272.228" stroke="#EB2136" stroke-linecap="round" stroke-linejoin="round"/>
<path d="M903.807 281.587L837.959 296.889" stroke="#EB2136" stroke-linecap="round" stroke-linejoin="round"/>
<path d="M903.807 306.062L837.197 321.55" stroke="#EB2136" stroke-linecap="round" stroke-linejoin="round"/>
<path d="M903.81 330.556L836.439 346.192" stroke="#EB2136" stroke-linecap="round" stroke-linejoin="round"/>
<path d="M903.81 355.031L835.697 370.853" stroke="#EB2136" stroke-linecap="round" stroke-linejoin="round"/>
<path d="M903.807 379.506L834.934 395.495" stroke="#EB2136" stroke-linecap="round" stroke-linejoin="round"/>
<path d="M903.807 403.981L834.172 420.156" stroke="#EB2136" stroke-linecap="round" stroke-linejoin="round"/>
<path d="M903.807 428.456L833.41 444.816" stroke="#EB2136" stroke-linecap="round" stroke-linejoin="round"/>
<path d="M903.808 452.931L832.65 469.458" stroke="#EB2136" stroke-linecap="round" stroke-linejoin="round"/>
<path d="M903.809 477.406L831.891 494.119" stroke="#EB2136" stroke-linecap="round" stroke-linejoin="round"/>
<path d="M903.809 501.881L831.129 518.78" stroke="#EB2136" stroke-linecap="round" stroke-linejoin="round"/>
<path d="M903.81 526.375L830.369 543.422" stroke="#EB2136" stroke-linecap="round" stroke-linejoin="round"/>
<path d="M903.807 550.85L829.605 568.083" stroke="#EB2136" stroke-linecap="round" stroke-linejoin="round"/>
<path d="M903.807 575.325L828.844 592.725" stroke="#EB2136" stroke-linecap="round" stroke-linejoin="round"/>
<path d="M903.104 14.0704H915.671" stroke="#EB2136" stroke-linecap="round" stroke-linejoin="round"/>
<path d="M909.506 27.4778H936.09" stroke="#EB2136" stroke-linecap="round" stroke-linejoin="round"/>
<path d="M915.934 40.9037H956.515" stroke="#EB2136" stroke-linecap="round" stroke-linejoin="round"/>
<path d="M922.354 54.3297H946.803" stroke="#EB2136" stroke-linecap="round" stroke-linejoin="round"/>
<path d="M962.305 44.7106L897.329 2L871.339 39.1397L842.248 157.987L828.641 599.949H841.636V637.088H903.827H954.879H1008.72V614.804L1031.92 359.469L962.305 44.7106Z" stroke="#EB2136" stroke-width="3" stroke-linecap="round" stroke-linejoin="round"/>
<path d="M889.066 169.277L913.906 59.3808" stroke="#EB2136" stroke-linecap="round" stroke-linejoin="round"/>
<path d="M872.547 165.284L898.184 51.8971" stroke="#EB2136" stroke-linecap="round" stroke-linejoin="round"/>
<path d="M856.021 161.311L882.457 44.432" stroke="#EB2136" stroke-linecap="round" stroke-linejoin="round"/>
<path d="M853.387 611.091V622.233" stroke="#EB2136" stroke-linecap="round" stroke-linejoin="round"/>
<path d="M862.67 611.091V622.233" stroke="#EB2136" stroke-linecap="round" stroke-linejoin="round"/>
<path d="M871.955 611.091V622.233" stroke="#EB2136" stroke-linecap="round" stroke-linejoin="round"/>
<path d="M881.234 611.091V622.233" stroke="#EB2136" stroke-linecap="round" stroke-linejoin="round"/>
<path d="M890.518 611.091V622.233" stroke="#EB2136" stroke-linecap="round" stroke-linejoin="round"/>
<path d="M963.215 623.458V628.416" stroke="#EB2136" stroke-linecap="round" stroke-linejoin="round"/>
<path d="M972.498 623.458V628.416" stroke="#EB2136" stroke-linecap="round" stroke-linejoin="round"/>
<path d="M981.777 623.458V628.416" stroke="#EB2136" stroke-linecap="round" stroke-linejoin="round"/>
<path d="M991.061 623.458V628.416" stroke="#EB2136" stroke-linecap="round" stroke-linejoin="round"/>
<path d="M1000.35 623.458V628.416" stroke="#EB2136" stroke-linecap="round" stroke-linejoin="round"/>
<path d="M942.016 57.3009L1004.97 341.902" stroke="#EB2136" stroke-linecap="round" stroke-linejoin="round"/>
<path d="M928.074 98.526L978.05 324.484" stroke="#EB2136" stroke-linecap="round" stroke-linejoin="round"/>
<path d="M927.904 202.09L951.054 306.749" stroke="#EB2136" stroke-linecap="round" stroke-linejoin="round"/>
<path d="M240.574 335.774L249.578 330.296L255.036 299.749C255.036 299.749 254.386 294.605 247.796 288.811C245.763 287.147 244.079 285.098 242.839 282.781C241.6 280.464 240.83 277.926 240.574 275.311C240.044 280.593 237.44 285.448 233.334 288.811C226.743 294.605 226.094 299.749 226.094 299.749L231.57 330.296L240.574 335.774Z" stroke="#EB2136" stroke-miterlimit="10"/>
<path d="M291.772 335.774L300.776 330.296L306.234 299.749C306.234 299.749 305.603 294.605 299.012 288.811C296.975 287.149 295.287 285.101 294.045 282.784C292.802 280.467 292.03 277.927 291.772 275.311C291.242 280.593 288.638 285.448 284.532 288.811C277.942 294.605 277.311 299.749 277.311 299.749L282.768 330.296L291.772 335.774Z" stroke="#EB2136" stroke-miterlimit="10"/>
<path d="M266.043 637.088H283.345L272.559 553.635H266.043H259.546L248.76 637.088H266.043Z" fill="#EB2136"/>
<path d="M240.574 275.311C240.044 280.593 237.44 285.448 233.334 288.811C226.743 294.605 226.094 299.749 226.094 299.749L231.57 330.296L240.574 335.774" fill="white"/>
<path d="M240.574 275.311C240.044 280.593 237.44 285.448 233.334 288.811C226.743 294.605 226.094 299.749 226.094 299.749L231.57 330.296L240.574 335.774" stroke="#EB2136" stroke-width="3" stroke-linecap="round" stroke-linejoin="round"/>
<path d="M232.367 335.774H266.285" stroke="#EB2136" stroke-width="3" stroke-linecap="round" stroke-linejoin="round"/>
<path d="M240.574 275.311C240.831 277.926 241.6 280.464 242.84 282.781C244.079 285.098 245.763 287.147 247.796 288.811C254.386 294.605 255.036 299.749 255.036 299.749L249.578 330.296L240.574 335.774" fill="#FBF8F8"/>
<path d="M240.574 275.311C240.831 277.926 241.6 280.464 242.84 282.781C244.079 285.098 245.763 287.147 247.796 288.811C254.386 294.605 255.036 299.749 255.036 299.749L249.578 330.296L240.574 335.774" stroke="#EB2136" stroke-width="3" stroke-linecap="round" stroke-linejoin="round"/>
<path d="M291.773 275.311C292.031 277.927 292.803 280.467 294.046 282.784C295.288 285.101 296.977 287.149 299.013 288.811C305.604 294.605 306.235 299.749 306.235 299.749L300.777 330.296L291.773 335.774" fill="#FBF8F8"/>
<path d="M291.773 275.311C292.031 277.927 292.803 280.467 294.046 282.784C295.288 285.101 296.977 287.149 299.013 288.811C305.604 294.605 306.235 299.749 306.235 299.749L300.777 330.296L291.773 335.774" stroke="#EB2136" stroke-width="3" stroke-linecap="round" stroke-linejoin="round"/>
<path d="M299.961 335.774H266.062" stroke="#EB2136" stroke-width="3" stroke-linecap="round" stroke-linejoin="round"/>
<path d="M291.772 275.311C291.242 280.593 288.638 285.448 284.532 288.811C277.942 294.605 277.311 299.749 277.311 299.749L282.769 330.296L291.772 335.774" fill="#FBF8F8"/>
<path d="M291.772 275.311C291.242 280.593 288.638 285.448 284.532 288.811C277.942 294.605 277.311 299.749 277.311 299.749L282.769 330.296L291.772 335.774" stroke="#EB2136" stroke-width="3" stroke-linecap="round" stroke-linejoin="round"/>
<path d="M266.062 318.077V553.635" stroke="#EB2136" stroke-width="3" stroke-linecap="round" stroke-linejoin="round"/>
<path d="M266.043 553.635H259.546L248.76 637.088H266.043" stroke="#EB2136" stroke-width="3" stroke-linecap="round" stroke-linejoin="round"/>
<path d="M261.328 453.47H270.796" stroke="#EB2136" stroke-width="3" stroke-linecap="round" stroke-linejoin="round"/>
<path d="M261.328 461.659H270.796" stroke="#EB2136" stroke-width="3" stroke-linecap="round" stroke-linejoin="round"/>
<path d="M261.328 469.867H270.796" stroke="#EB2136" stroke-width="3" stroke-linecap="round" stroke-linejoin="round"/>
<path d="M266.043 553.635H272.559L283.345 637.088H266.043" stroke="#EB2136" stroke-width="3" stroke-linecap="round" stroke-linejoin="round"/>
<path d="M250.578 623.105H281.636" stroke="#EB2136" stroke-linecap="round" stroke-linejoin="round"/>
<path d="M263.278 584.833L261.199 615.696" stroke="#EB2136" stroke-linecap="round" stroke-linejoin="round"/>
<path d="M268.92 584.833L271.017 615.696" stroke="#EB2136" stroke-linecap="round" stroke-linejoin="round"/>
<path d="M256.631 576.161H275.474" stroke="#EB2136" stroke-linecap="round" stroke-linejoin="round"/>
<path d="M226.094 299.749H255.036" stroke="#EB2136" stroke-linecap="round" stroke-linejoin="round"/>
<path d="M277.311 299.749H306.234" stroke="#EB2136" stroke-linecap="round" stroke-linejoin="round"/>
<path d="M235.098 299.749L240.574 335.774" stroke="#EB2136" stroke-linecap="round" stroke-linejoin="round"/>
<path d="M246.032 299.749L240.574 335.774" stroke="#EB2136" stroke-linecap="round" stroke-linejoin="round"/>
<path d="M286.297 299.749L291.774 335.774" stroke="#EB2136" stroke-linecap="round" stroke-linejoin="round"/>
<path d="M297.231 299.749L291.773 335.774" stroke="#EB2136" stroke-linecap="round" stroke-linejoin="round"/>
<path d="M234.947 345.895C236.061 342.181 239.997 338.671 247.794 338.671C255.591 338.671 266.062 348.309 266.062 363.109" stroke="#EB2136" stroke-linecap="round" stroke-linejoin="round"/>
<path d="M297.178 345.895C296.064 342.181 292.128 338.671 284.331 338.671C276.534 338.671 266.082 348.309 266.082 363.109" stroke="#EB2136" stroke-linecap="round" stroke-linejoin="round"/>
<path d="M822.181 525.428H779.334V492.002L770.572 432.579V333.769L776.605 325.412V318.913H770.572V274.735L758.505 219.026L746.438 274.735V318.838H740.404V325.338L746.438 333.694V432.579L741.017 469.124H737.62L702.495 455.308L688.498 461.288V440.322L663.083 432.579L655.249 434.881V398.54L636.833 391.502C636.833 391.502 620.849 374.622 589.976 374.622L581.473 366.581L571.56 346.47H564.617C564.617 346.47 540.279 294.159 466.967 284.261C393.675 294.159 369.337 346.47 369.337 346.47H362.394L352.48 366.581L343.977 374.622C313.105 374.622 297.121 391.502 297.121 391.502L278.705 398.54V434.956L270.87 432.653L245.511 440.322V461.362L231.514 455.382L196.39 469.198H192.992L187.646 432.579V333.769L193.679 325.412V318.913H187.646V274.735L175.579 219.026L163.512 274.735V318.838H157.478V325.338L163.512 333.694V432.579L154.694 492.002V525.428H111.772L73.084 538.742V637.163H860.87V538.742L822.181 525.428Z" fill="#FBF8F8" stroke="#EB2136" stroke-miterlimit="10"/>
<path d="M163.436 333.769H175.502" stroke="#EB2136" stroke-linecap="round" stroke-linejoin="round"/>
<path d="M175.502 318.913H163.436" stroke="#EB2136" stroke-linecap="round" stroke-linejoin="round"/>
<path d="M159.725 432.653H175.504" stroke="#EB2136" stroke-linecap="round" stroke-linejoin="round"/>
<path d="M175.504 208.887V199.602" stroke="#EB2136" stroke-linecap="round" stroke-linejoin="round"/>
<path d="M163.436 274.809H175.502" stroke="#EB2136" stroke-linecap="round" stroke-linejoin="round"/>
<path d="M171.326 274.809L175.503 219.1" stroke="#EB2136" stroke-linecap="round" stroke-linejoin="round"/>
<path d="M187.571 333.769H175.504" stroke="#EB2136" stroke-linecap="round" stroke-linejoin="round"/>
<path d="M175.504 318.913H187.571" stroke="#EB2136" stroke-linecap="round" stroke-linejoin="round"/>
<path d="M191.284 432.653H175.504" stroke="#EB2136" stroke-linecap="round" stroke-linejoin="round"/>
<path d="M187.571 274.809H175.504" stroke="#EB2136" stroke-linecap="round" stroke-linejoin="round"/>
<path d="M179.681 274.809L175.504 219.1" stroke="#EB2136" stroke-linecap="round" stroke-linejoin="round"/>
<path d="M196.389 492.077V510.219" stroke="#EB2136" stroke-linecap="round" stroke-linejoin="round"/>
<path d="M154.619 492.077H175.504" stroke="#EB2136" stroke-linecap="round" stroke-linejoin="round"/>
<path d="M175.504 492.077H196.389L231.513 478.261L259.36 490.145" stroke="#EB2136" stroke-linecap="round" stroke-linejoin="round"/>
<path d="M288.748 534.954V543.924H259.361L288.748 534.954ZM288.748 534.954V493.785L266.155 487.898L183.395 515.14V602.734H215.103L215.697 504.518" stroke="#EB2136" stroke-linecap="round" stroke-linejoin="round"/>
<path d="M280.394 543.923V579.206L298.643 589.735H253.16V579.206" stroke="#EB2136" stroke-linecap="round" stroke-linejoin="round"/>
<path d="M280.394 579.206H253.16" stroke="#EB2136" stroke-linecap="round" stroke-linejoin="round"/>
<path d="M259.359 543.923V579.206" stroke="#EB2136" stroke-linecap="round" stroke-linejoin="round"/>
<path d="M259.361 571.778H215.178" stroke="#EB2136" stroke-linecap="round" stroke-linejoin="round"/>
<path d="M215.455 545.316H183.395L199.416 536.811L215.455 545.316Z" stroke="#EB2136" stroke-linecap="round" stroke-linejoin="round"/>
<path d="M215.455 571.778H183.395L199.416 563.273L215.455 571.778Z" stroke="#EB2136" stroke-linecap="round" stroke-linejoin="round"/>
<path d="M226.52 554.453C226.635 551.681 227.817 549.061 229.818 547.14C231.819 545.22 234.485 544.147 237.259 544.147C240.032 544.147 242.698 545.22 244.7 547.14C246.701 549.061 247.883 551.681 247.998 554.453V571.853H226.52V554.453Z" stroke="#EB2136" stroke-linecap="round" stroke-linejoin="round"/>
<path d="M317.801 573.208C317.898 571.213 318.76 569.331 320.206 567.953C321.652 566.576 323.573 565.807 325.57 565.807C327.567 565.807 329.488 566.576 330.935 567.953C332.381 569.331 333.242 571.213 333.339 573.208V589.735H317.801V573.208Z" stroke="#EB2136" stroke-linecap="round" stroke-linejoin="round"/>
<path d="M316.873 482.532C316.873 481.399 317.323 480.313 318.124 479.512C318.925 478.711 320.011 478.261 321.143 478.261C322.275 478.261 323.362 478.711 324.162 479.512C324.963 480.313 325.413 481.399 325.413 482.532V499.43H316.873V482.532Z" stroke="#EB2136" stroke-linecap="round" stroke-linejoin="round"/>
<path d="M300.555 489.978C300.555 488.845 301.005 487.759 301.805 486.958C302.606 486.157 303.692 485.707 304.825 485.707C305.957 485.707 307.043 486.157 307.844 486.958C308.644 487.759 309.094 488.845 309.094 489.978V499.43H300.555V489.978Z" stroke="#EB2136" stroke-linecap="round" stroke-linejoin="round"/>
<path d="M257.188 455.865C257.187 455.304 257.298 454.749 257.513 454.231C257.727 453.713 258.042 453.242 258.438 452.845C258.835 452.449 259.305 452.134 259.823 451.919C260.342 451.705 260.897 451.594 261.457 451.594C262.018 451.594 262.573 451.705 263.091 451.919C263.609 452.134 264.08 452.449 264.477 452.845C264.873 453.242 265.187 453.713 265.402 454.231C265.617 454.749 265.727 455.304 265.727 455.865V465.41H257.188V455.865Z" stroke="#EB2136" stroke-linecap="round" stroke-linejoin="round"/>
<path d="M333.172 489.978C333.172 488.845 333.622 487.759 334.422 486.958C335.223 486.157 336.309 485.707 337.442 485.707C338.574 485.707 339.66 486.157 340.461 486.958C341.262 487.759 341.712 488.845 341.712 489.978V499.43H333.172V489.978Z" stroke="#EB2136" stroke-linecap="round" stroke-linejoin="round"/>
<path d="M462.715 418.874C462.715 418.313 462.825 417.758 463.04 417.24C463.254 416.722 463.569 416.251 463.965 415.854C464.362 415.458 464.833 415.143 465.351 414.928C465.869 414.714 466.424 414.603 466.985 414.603C467.545 414.603 468.101 414.714 468.619 414.928C469.137 415.143 469.607 415.458 470.004 415.854C470.4 416.251 470.715 416.722 470.93 417.24C471.144 417.758 471.255 418.313 471.255 418.874V433.99H462.715V418.874Z" stroke="#EB2136" stroke-linecap="round" stroke-linejoin="round"/>
<path d="M462.715 357.037C462.715 356.476 462.825 355.92 463.04 355.402C463.254 354.884 463.569 354.413 463.965 354.017C464.362 353.62 464.833 353.305 465.351 353.091C465.869 352.876 466.424 352.766 466.985 352.766C467.545 352.766 468.101 352.876 468.619 353.091C469.137 353.305 469.607 353.62 470.004 354.017C470.4 354.413 470.715 354.884 470.93 355.402C471.144 355.92 471.255 356.476 471.255 357.037V366.582H462.715V357.037Z" stroke="#EB2136" stroke-linecap="round" stroke-linejoin="round"/>
<path d="M445.691 357.037C445.691 355.904 446.141 354.818 446.942 354.017C447.743 353.216 448.829 352.766 449.962 352.766C451.094 352.766 452.18 353.216 452.981 354.017C453.782 354.818 454.231 355.904 454.231 357.037V366.582H445.691V357.037Z" stroke="#EB2136" stroke-linecap="round" stroke-linejoin="round"/>
<path d="M428.703 357.037C428.703 355.904 429.153 354.818 429.954 354.017C430.755 353.216 431.841 352.766 432.973 352.766C434.106 352.766 435.192 353.216 435.993 354.017C436.793 354.818 437.243 355.904 437.243 357.037V366.582H428.703V357.037Z" stroke="#EB2136" stroke-linecap="round" stroke-linejoin="round"/>
<path d="M411.701 357.037C411.701 356.476 411.812 355.92 412.026 355.402C412.241 354.884 412.555 354.413 412.952 354.017C413.348 353.62 413.819 353.305 414.337 353.091C414.855 352.876 415.41 352.766 415.971 352.766C416.532 352.766 417.087 352.876 417.605 353.091C418.123 353.305 418.594 353.62 418.99 354.017C419.387 354.413 419.701 354.884 419.916 355.402C420.13 355.92 420.241 356.476 420.241 357.037V366.582H411.701V357.037Z" stroke="#EB2136" stroke-linecap="round" stroke-linejoin="round"/>
<path d="M394.695 357.037C394.695 355.904 395.145 354.818 395.946 354.017C396.747 353.216 397.833 352.766 398.965 352.766C400.098 352.766 401.184 353.216 401.984 354.017C402.785 354.818 403.235 355.904 403.235 357.037V366.582H394.695V357.037Z" stroke="#EB2136" stroke-linecap="round" stroke-linejoin="round"/>
<path d="M377.689 357.037C377.689 355.904 378.139 354.818 378.94 354.017C379.741 353.216 380.827 352.766 381.959 352.766C383.092 352.766 384.178 353.216 384.979 354.017C385.779 354.818 386.229 355.904 386.229 357.037V366.582H377.689V357.037Z" stroke="#EB2136" stroke-linecap="round" stroke-linejoin="round"/>
<path d="M338.111 410.295C338.111 409.162 338.561 408.076 339.362 407.275C340.163 406.474 341.249 406.024 342.381 406.024C343.514 406.024 344.6 406.474 345.4 407.275C346.201 408.076 346.651 409.162 346.651 410.295V419.84H338.111V410.295Z" stroke="#EB2136" stroke-linecap="round" stroke-linejoin="round"/>
<path d="M321.105 410.295C321.105 409.162 321.555 408.076 322.356 407.275C323.157 406.474 324.243 406.024 325.375 406.024C326.508 406.024 327.594 406.474 328.395 407.275C329.195 408.076 329.645 409.162 329.645 410.295V419.84H321.105V410.295Z" stroke="#EB2136" stroke-linecap="round" stroke-linejoin="round"/>
<path d="M304.098 410.295C304.098 409.162 304.548 408.076 305.348 407.275C306.149 406.474 307.235 406.024 308.368 406.024C309.5 406.024 310.586 406.474 311.387 407.275C312.188 408.076 312.637 409.162 312.637 410.295V419.84H304.098V410.295Z" stroke="#EB2136" stroke-linecap="round" stroke-linejoin="round"/>
<path d="M287.096 410.295C287.096 409.162 287.546 408.076 288.346 407.275C289.147 406.474 290.233 406.024 291.366 406.024C292.498 406.024 293.584 406.474 294.385 407.275C295.185 408.076 295.635 409.162 295.635 410.295V419.84H287.096V410.295Z" stroke="#EB2136" stroke-linecap="round" stroke-linejoin="round"/>
<path d="M462.715 445.763C462.715 445.202 462.825 444.647 463.04 444.129C463.254 443.611 463.569 443.14 463.965 442.743C464.362 442.347 464.833 442.032 465.351 441.817C465.869 441.603 466.424 441.492 466.985 441.492C467.545 441.492 468.101 441.603 468.619 441.817C469.137 442.032 469.607 442.347 470.004 442.743C470.4 443.14 470.715 443.611 470.93 444.129C471.144 444.647 471.255 445.202 471.255 445.763V451.594H462.715V445.763Z" stroke="#EB2136" stroke-linecap="round" stroke-linejoin="round"/>
<path d="M440.123 426.302C440.123 425.169 440.573 424.083 441.374 423.282C442.175 422.481 443.261 422.031 444.393 422.031C445.525 422.031 446.612 422.481 447.412 423.282C448.213 424.083 448.663 425.169 448.663 426.302V433.99H440.123V426.302Z" stroke="#EB2136" stroke-linecap="round" stroke-linejoin="round"/>
<path d="M440.123 445.763C440.123 444.631 440.573 443.544 441.374 442.743C442.175 441.942 443.261 441.492 444.393 441.492C445.525 441.492 446.612 441.942 447.412 442.743C448.213 443.544 448.663 444.631 448.663 445.763V451.594H440.123V445.763Z" stroke="#EB2136" stroke-linecap="round" stroke-linejoin="round"/>
<path d="M417.678 445.763C417.678 444.631 418.127 443.544 418.928 442.743C419.729 441.942 420.815 441.492 421.947 441.492C423.08 441.492 424.166 441.942 424.967 442.743C425.768 443.544 426.217 444.631 426.217 445.763V451.594H417.678V445.763Z" stroke="#EB2136" stroke-linecap="round" stroke-linejoin="round"/>
<path d="M380.717 382.44C382.069 382.438 383.408 382.702 384.658 383.218C385.908 383.734 387.044 384.491 388.001 385.447C388.958 386.402 389.717 387.537 390.235 388.787C390.753 390.036 391.02 391.375 391.02 392.728V408.438H409.028V458.019H466.912" stroke="#EB2136" stroke-linecap="round" stroke-linejoin="round"/>
<path d="M409.104 502.828C409.104 497.972 411.032 493.315 414.465 489.881C417.898 486.448 422.553 484.518 427.408 484.518C432.263 484.518 436.918 486.448 440.351 489.881C443.784 493.315 445.713 497.972 445.713 502.828" stroke="#EB2136" stroke-linecap="round" stroke-linejoin="round"/>
<path d="M426.219 580.673C426.219 579.54 426.668 578.454 427.469 577.653C428.27 576.852 429.356 576.402 430.488 576.402C431.621 576.402 432.707 576.852 433.508 577.653C434.308 578.454 434.758 579.54 434.758 580.673V590.2H426.219V580.673Z" stroke="#EB2136" stroke-linecap="round" stroke-linejoin="round"/>
<path d="M444.465 580.673C444.465 579.54 444.915 578.454 445.715 577.653C446.516 576.852 447.602 576.402 448.735 576.402C449.867 576.402 450.953 576.852 451.754 577.653C452.554 578.454 453.004 579.54 453.004 580.673V590.2H444.465V580.673Z" stroke="#EB2136" stroke-linecap="round" stroke-linejoin="round"/>
<path d="M462.715 580.673C462.715 580.112 462.825 579.557 463.04 579.039C463.254 578.521 463.569 578.05 463.965 577.653C464.362 577.256 464.833 576.942 465.351 576.727C465.869 576.513 466.424 576.402 466.985 576.402C467.545 576.402 468.101 576.513 468.619 576.727C469.137 576.942 469.607 577.256 470.004 577.653C470.4 578.05 470.715 578.521 470.93 579.039C471.144 579.557 471.255 580.112 471.255 580.673V590.2H462.715V580.673Z" stroke="#EB2136" stroke-linecap="round" stroke-linejoin="round"/>
<path d="M426.219 600.041C426.219 598.909 426.668 597.822 427.469 597.021C428.27 596.22 429.356 595.77 430.488 595.77C431.621 595.77 432.707 596.22 433.508 597.021C434.308 597.822 434.758 598.909 434.758 600.041V609.586H426.219V600.041Z" stroke="#EB2136" stroke-linecap="round" stroke-linejoin="round"/>
<path d="M444.465 600.041C444.465 598.909 444.915 597.822 445.715 597.021C446.516 596.22 447.602 595.77 448.735 595.77C449.867 595.77 450.953 596.22 451.754 597.021C452.554 597.822 453.004 598.909 453.004 600.041V609.586H444.465V600.041Z" stroke="#EB2136" stroke-linecap="round" stroke-linejoin="round"/>
<path d="M462.715 600.041C462.715 599.481 462.825 598.925 463.04 598.407C463.254 597.889 463.569 597.418 463.965 597.021C464.362 596.625 464.833 596.31 465.351 596.096C465.869 595.881 466.424 595.77 466.985 595.77C467.545 595.77 468.101 595.881 468.619 596.096C469.137 596.31 469.607 596.625 470.004 597.021C470.4 597.418 470.715 597.889 470.93 598.407C471.144 598.925 471.255 599.481 471.255 600.041V609.586H462.715V600.041Z" stroke="#EB2136" stroke-linecap="round" stroke-linejoin="round"/>
<path d="M426.219 619.428C426.219 618.296 426.668 617.209 427.469 616.408C428.27 615.607 429.356 615.157 430.488 615.157C431.621 615.157 432.707 615.607 433.508 616.408C434.308 617.209 434.758 618.296 434.758 619.428V628.973H426.219V619.428Z" stroke="#EB2136" stroke-linecap="round" stroke-linejoin="round"/>
<path d="M409.104 580.673C409.104 579.54 409.553 578.454 410.354 577.653C411.155 576.852 412.241 576.402 413.373 576.402C414.506 576.402 415.592 576.852 416.392 577.653C417.193 578.454 417.643 579.54 417.643 580.673V590.2H409.104V580.673Z" stroke="#EB2136" stroke-linecap="round" stroke-linejoin="round"/>
<path d="M409.104 600.041C409.104 598.909 409.553 597.822 410.354 597.021C411.155 596.22 412.241 595.77 413.373 595.77C414.506 595.77 415.592 596.22 416.392 597.021C417.193 597.822 417.643 598.909 417.643 600.041V609.586H409.104V600.041Z" stroke="#EB2136" stroke-linecap="round" stroke-linejoin="round"/>
<path d="M409.104 619.428C409.104 618.296 409.553 617.209 410.354 616.408C411.155 615.607 412.241 615.157 413.373 615.157C414.506 615.157 415.592 615.607 416.392 616.408C417.193 617.209 417.643 618.296 417.643 619.428V628.973H409.104V619.428Z" stroke="#EB2136" stroke-linecap="round" stroke-linejoin="round"/>
<path d="M444.465 619.428C444.465 618.296 444.915 617.209 445.715 616.408C446.516 615.607 447.602 615.157 448.735 615.157C449.867 615.157 450.953 615.607 451.754 616.408C452.554 617.209 453.004 618.296 453.004 619.428V628.973H444.465V619.428Z" stroke="#EB2136" stroke-linecap="round" stroke-linejoin="round"/>
<path d="M462.715 619.428C462.715 618.867 462.825 618.312 463.04 617.794C463.254 617.276 463.569 616.805 463.965 616.408C464.362 616.012 464.833 615.697 465.351 615.482C465.869 615.268 466.424 615.157 466.985 615.157C467.545 615.157 468.101 615.268 468.619 615.482C469.137 615.697 469.607 616.012 470.004 616.408C470.4 616.805 470.715 617.276 470.93 617.794C471.144 618.312 471.255 618.867 471.255 619.428V628.973H462.715V619.428Z" stroke="#EB2136" stroke-linecap="round" stroke-linejoin="round"/>
<path d="M231.495 523.181H226.52V532.002H231.495V523.181Z" stroke="#EB2136" stroke-linecap="round" stroke-linejoin="round"/>
<path d="M247.997 523.181H243.021V532.002H247.997V523.181Z" stroke="#EB2136" stroke-linecap="round" stroke-linejoin="round"/>
<path d="M383.278 417.092H378.303V425.912H383.278V417.092Z" stroke="#EB2136" stroke-linecap="round" stroke-linejoin="round"/>
<path d="M383.278 442.365H378.303V451.186H383.278V442.365Z" stroke="#EB2136" stroke-linecap="round" stroke-linejoin="round"/>
<path d="M98.1626 548.919H93.1875V557.739H98.1626V548.919Z" stroke="#EB2136" stroke-linecap="round" stroke-linejoin="round"/>
<path d="M330.091 613.189H321.031V627.413H330.091V613.189Z" stroke="#EB2136" stroke-linecap="round" stroke-linejoin="round"/>
<path d="M310.414 589.735H325.563" stroke="#EB2136" stroke-linecap="round" stroke-linejoin="round"/>
<path d="M325.764 589.735H340.912" stroke="#EB2136" stroke-linecap="round" stroke-linejoin="round"/>
<path d="M298.641 637.088H325.559" stroke="#EB2136" stroke-linecap="round" stroke-linejoin="round"/>
<path d="M298.641 543.923H325.559" stroke="#EB2136" stroke-linecap="round" stroke-linejoin="round"/>
<path d="M288.749 543.923H298.644V637.088H253.161V589.735H215.178" stroke="#EB2136" stroke-linecap="round" stroke-linejoin="round"/>
<path d="M370.746 543.923V579.206L352.479 589.735H397.962V579.206" stroke="#EB2136" stroke-linecap="round" stroke-linejoin="round"/>
<path d="M352.479 637.088H325.561" stroke="#EB2136" stroke-linecap="round" stroke-linejoin="round"/>
<path d="M352.479 543.923H325.561" stroke="#EB2136" stroke-linecap="round" stroke-linejoin="round"/>
<path d="M362.392 543.923H352.479V637.088H397.962V589.735" stroke="#EB2136" stroke-linecap="round" stroke-linejoin="round"/>
<path d="M362.393 543.923H409.101V557.851" stroke="#EB2136" stroke-linecap="round" stroke-linejoin="round"/>
<path d="M325.562 525.428C298.643 525.428 288.748 543.998 288.748 543.998" stroke="#EB2136" stroke-linecap="round" stroke-linejoin="round"/>
<path d="M325.561 525.428C352.479 525.428 362.393 543.998 362.393 543.998" stroke="#EB2136" stroke-linecap="round" stroke-linejoin="round"/>
<path d="M325.561 457.945C298.642 457.945 288.747 476.515 288.747 476.515L266.154 487.898" stroke="#EB2136" stroke-linecap="round" stroke-linejoin="round"/>
<path d="M325.561 457.945C352.479 457.945 362.393 476.515 362.393 476.515" stroke="#EB2136" stroke-linecap="round" stroke-linejoin="round"/>
<path d="M315.537 427.806C288.618 427.806 278.705 446.376 278.705 446.376" stroke="#EB2136" stroke-linecap="round" stroke-linejoin="round"/>
<path d="M315.537 427.806C342.456 427.806 352.35 446.376 352.35 446.376" stroke="#EB2136" stroke-linecap="round" stroke-linejoin="round"/>
<path d="M352.479 533.45V476.515H409.1V543.923" stroke="#EB2136" stroke-linecap="round" stroke-linejoin="round"/>
<path d="M352.479 499.505H409.1" stroke="#EB2136" stroke-linecap="round" stroke-linejoin="round"/>
<path d="M183.395 602.734V637.088H253.16" stroke="#EB2136" stroke-linecap="round" stroke-linejoin="round"/>
<path d="M215.104 602.734V637.088" stroke="#EB2136" stroke-linecap="round" stroke-linejoin="round"/>
<path d="M215.178 583.31L229.231 571.778" stroke="#EB2136" stroke-linecap="round" stroke-linejoin="round"/>
<path d="M223.623 589.735L245.511 571.778" stroke="#EB2136" stroke-linecap="round" stroke-linejoin="round"/>
<path d="M352.479 488.01L366.513 476.515" stroke="#EB2136" stroke-linecap="round" stroke-linejoin="round"/>
<path d="M353.893 499.504L381.944 476.515" stroke="#EB2136" stroke-linecap="round" stroke-linejoin="round"/>
<path d="M369.338 499.504L397.389 476.515" stroke="#EB2136" stroke-linecap="round" stroke-linejoin="round"/>
<path d="M384.779 499.504L409.099 479.56" stroke="#EB2136" stroke-linecap="round" stroke-linejoin="round"/>
<path d="M400.209 499.504L409.102 492.225" stroke="#EB2136" stroke-linecap="round" stroke-linejoin="round"/>
<path d="M239.904 589.735L259.36 573.784" stroke="#EB2136" stroke-linecap="round" stroke-linejoin="round"/>
<path d="M183.394 532.002H154.619L117.342 545.316H183.394" stroke="#EB2136" stroke-linecap="round" stroke-linejoin="round"/>
<path d="M117.342 545.316V637.088H183.394" stroke="#EB2136" stroke-linecap="round" stroke-linejoin="round"/>
<path d="M117.34 563.273L95.6758 571.778H117.34" stroke="#EB2136" stroke-linecap="round" stroke-linejoin="round"/>
<path d="M95.6758 571.778V637.088H117.34" stroke="#EB2136" stroke-linecap="round" stroke-linejoin="round"/>
<path d="M73.084 538.668H135.981" stroke="#EB2136" stroke-linecap="round" stroke-linejoin="round"/>
<path d="M172.406 545.316V637.088" stroke="#EB2136" stroke-linecap="round" stroke-linejoin="round"/>
<path d="M466.967 517.313C451.503 517.313 426.738 527.601 409.102 557.851L397.963 565.446H466.967" stroke="#EB2136" stroke-linecap="round" stroke-linejoin="round"/>
<path d="M397.961 565.446V579.206H370.746" stroke="#EB2136" stroke-linecap="round" stroke-linejoin="round"/>
<path d="M409.104 557.851H466.969" stroke="#EB2136" stroke-linecap="round" stroke-linejoin="round"/>
<path d="M397.963 637.088H466.967" stroke="#EB2136" stroke-linecap="round" stroke-linejoin="round"/>
<path d="M409.104 476.515H466.969" stroke="#EB2136" stroke-linecap="round" stroke-linejoin="round"/>
<path d="M421.264 541.045V485.596" stroke="#EB2136" stroke-linecap="round" stroke-linejoin="round"/>
<path d="M433.551 485.596V529.829" stroke="#EB2136" stroke-linecap="round" stroke-linejoin="round"/>
<path d="M409.104 502.828H445.713V522.531" stroke="#EB2136" stroke-linecap="round" stroke-linejoin="round"/>
<path d="M454.992 502.828H466.985" stroke="#EB2136" stroke-linecap="round" stroke-linejoin="round"/>
<path d="M380.715 382.44C377.986 382.44 375.368 383.523 373.436 385.452C371.504 387.381 370.417 389.998 370.412 392.728V408.438H352.404V466.005" stroke="#EB2136" stroke-linecap="round" stroke-linejoin="round"/>
<path d="M466.969 403.406C450.261 403.406 417.773 411.836 409.104 446.785" stroke="#EB2136" stroke-linecap="round" stroke-linejoin="round"/>
<path d="M400.209 408.364V382.477H466.967" stroke="#EB2136" stroke-linecap="round" stroke-linejoin="round"/>
<path d="M352.479 366.582H466.966" stroke="#EB2136" stroke-linecap="round" stroke-linejoin="round"/>
<path d="M466.969 374.622H343.979" stroke="#EB2136" stroke-linecap="round" stroke-linejoin="round"/>
<path d="M352.479 374.622V408.364" stroke="#EB2136" stroke-linecap="round" stroke-linejoin="round"/>
<path d="M369.338 346.47H466.969" stroke="#EB2136" stroke-linecap="round" stroke-linejoin="round"/>
<path d="M459.578 285.431L466.967 272.191" stroke="#EB2136" stroke-linecap="round" stroke-linejoin="round"/>
<path d="M466.967 272.191V246.955" stroke="#EB2136" stroke-linecap="round" stroke-linejoin="round"/>
<path d="M278.705 481.566V446.376H352.35" stroke="#EB2136" stroke-linecap="round" stroke-linejoin="round"/>
<path d="M245.51 461.362V484.24" stroke="#EB2136" stroke-linecap="round" stroke-linejoin="round"/>
<path d="M285.963 437.091L278.705 434.956" stroke="#EB2136" stroke-linecap="round" stroke-linejoin="round"/>
<path d="M278.705 398.54H352.35" stroke="#EB2136" stroke-linecap="round" stroke-linejoin="round"/>
<path d="M297.121 391.502H352.351" stroke="#EB2136" stroke-linecap="round" stroke-linejoin="round"/>
<path d="M192.992 469.198L196.39 492.077" stroke="#EB2136" stroke-linecap="round" stroke-linejoin="round"/>
<path d="M154.619 532.002V525.354" stroke="#EB2136" stroke-linecap="round" stroke-linejoin="round"/>
<path d="M770.514 333.769H758.447" stroke="#EB2136" stroke-linecap="round" stroke-linejoin="round"/>
<path d="M758.447 318.913H770.514" stroke="#EB2136" stroke-linecap="round" stroke-linejoin="round"/>
<path d="M774.227 432.653H758.447" stroke="#EB2136" stroke-linecap="round" stroke-linejoin="round"/>
<path d="M758.447 208.887V199.602" stroke="#EB2136" stroke-linecap="round" stroke-linejoin="round"/>
<path d="M770.514 274.809H758.447" stroke="#EB2136" stroke-linecap="round" stroke-linejoin="round"/>
<path d="M762.624 274.809L758.447 219.1" stroke="#EB2136" stroke-linecap="round" stroke-linejoin="round"/>
<path d="M746.381 333.769H758.448" stroke="#EB2136" stroke-linecap="round" stroke-linejoin="round"/>
<path d="M758.448 318.913H746.381" stroke="#EB2136" stroke-linecap="round" stroke-linejoin="round"/>
<path d="M742.668 432.653H758.448" stroke="#EB2136" stroke-linecap="round" stroke-linejoin="round"/>
<path d="M746.381 274.809H758.448" stroke="#EB2136" stroke-linecap="round" stroke-linejoin="round"/>
<path d="M754.271 274.809L758.449 219.1" stroke="#EB2136" stroke-linecap="round" stroke-linejoin="round"/>
<path d="M737.562 492.077V510.219" stroke="#EB2136" stroke-linecap="round" stroke-linejoin="round"/>
<path d="M779.332 492.077H758.447" stroke="#EB2136" stroke-linecap="round" stroke-linejoin="round"/>
<path d="M758.45 492.077H737.565L702.441 478.261L674.594 490.145" stroke="#EB2136" stroke-linecap="round" stroke-linejoin="round"/>
<path d="M645.203 534.954V543.924H674.591L645.203 534.954ZM645.203 534.954V493.785L667.796 487.898L750.557 515.14V602.734H718.849L718.254 504.518" stroke="#EB2136" stroke-linecap="round" stroke-linejoin="round"/>
<path d="M653.559 543.923V579.206L635.311 589.735H680.794V579.206" stroke="#EB2136" stroke-linecap="round" stroke-linejoin="round"/>
<path d="M653.559 579.206H680.793" stroke="#EB2136" stroke-linecap="round" stroke-linejoin="round"/>
<path d="M674.594 543.923V579.206" stroke="#EB2136" stroke-linecap="round" stroke-linejoin="round"/>
<path d="M674.594 571.778H718.777" stroke="#EB2136" stroke-linecap="round" stroke-linejoin="round"/>
<path d="M718.496 545.316H750.557L734.536 536.811L718.496 545.316Z" stroke="#EB2136" stroke-linecap="round" stroke-linejoin="round"/>
<path d="M718.496 571.778H750.557L734.536 563.273L718.496 571.778Z" stroke="#EB2136" stroke-linecap="round" stroke-linejoin="round"/>
<path d="M707.453 554.453C707.453 551.606 706.322 548.876 704.31 546.863C702.298 544.85 699.568 543.719 696.722 543.719C693.877 543.719 691.147 544.85 689.135 546.863C687.123 548.876 685.992 551.606 685.992 554.453V571.852H707.453V554.453Z" stroke="#EB2136" stroke-linecap="round" stroke-linejoin="round"/>
<path d="M616.153 573.208C616.056 571.213 615.195 569.331 613.749 567.953C612.302 566.576 610.382 565.807 608.384 565.807C606.387 565.807 604.467 566.576 603.02 567.953C601.574 569.331 600.713 571.213 600.615 573.208V589.735H616.153V573.208Z" stroke="#EB2136" stroke-linecap="round" stroke-linejoin="round"/>
<path d="M617.081 482.532C617.081 481.399 616.631 480.313 615.83 479.512C615.029 478.711 613.943 478.261 612.811 478.261C611.678 478.261 610.592 478.711 609.792 479.512C608.991 480.313 608.541 481.399 608.541 482.532V499.43H617.081V482.532Z" stroke="#EB2136" stroke-linecap="round" stroke-linejoin="round"/>
<path d="M633.399 489.978C633.399 488.845 632.949 487.759 632.149 486.958C631.348 486.157 630.262 485.707 629.129 485.707C627.997 485.707 626.911 486.157 626.11 486.958C625.309 487.759 624.859 488.845 624.859 489.978V499.43H633.399V489.978Z" stroke="#EB2136" stroke-linecap="round" stroke-linejoin="round"/>
<path d="M676.764 455.865C676.764 454.733 676.315 453.646 675.514 452.845C674.713 452.044 673.627 451.594 672.495 451.594C671.362 451.594 670.276 452.044 669.475 452.845C668.675 453.646 668.225 454.733 668.225 455.865V465.41H676.764V455.865Z" stroke="#EB2136" stroke-linecap="round" stroke-linejoin="round"/>
<path d="M600.782 489.978C600.782 488.845 600.332 487.759 599.531 486.958C598.731 486.157 597.645 485.707 596.512 485.707C595.38 485.707 594.294 486.157 593.493 486.958C592.692 487.759 592.242 488.845 592.242 489.978V499.43H600.782V489.978Z" stroke="#EB2136" stroke-linecap="round" stroke-linejoin="round"/>
<path d="M488.239 357.037C488.239 355.904 487.789 354.818 486.988 354.017C486.187 353.216 485.101 352.766 483.969 352.766C482.837 352.766 481.751 353.216 480.95 354.017C480.149 354.818 479.699 355.904 479.699 357.037V366.582H488.239V357.037Z" stroke="#EB2136" stroke-linecap="round" stroke-linejoin="round"/>
<path d="M505.248 357.037C505.248 356.476 505.138 355.92 504.924 355.402C504.709 354.884 504.395 354.413 503.998 354.017C503.602 353.62 503.131 353.305 502.613 353.091C502.095 352.876 501.54 352.766 500.979 352.766C500.418 352.766 499.863 352.876 499.345 353.091C498.827 353.305 498.356 353.62 497.96 354.017C497.563 354.413 497.249 354.884 497.034 355.402C496.819 355.92 496.709 356.476 496.709 357.037V366.582H505.248V357.037Z" stroke="#EB2136" stroke-linecap="round" stroke-linejoin="round"/>
<path d="M522.253 357.037C522.253 355.904 521.803 354.818 521.002 354.017C520.201 353.216 519.115 352.766 517.983 352.766C516.85 352.766 515.764 353.216 514.963 354.017C514.163 354.818 513.713 355.904 513.713 357.037V366.582H522.253V357.037Z" stroke="#EB2136" stroke-linecap="round" stroke-linejoin="round"/>
<path d="M539.255 357.037C539.255 355.904 538.805 354.818 538.004 354.017C537.203 353.216 536.117 352.766 534.985 352.766C533.852 352.766 532.766 353.216 531.965 354.017C531.165 354.818 530.715 355.904 530.715 357.037V366.582H539.255V357.037Z" stroke="#EB2136" stroke-linecap="round" stroke-linejoin="round"/>
<path d="M556.263 357.037C556.263 355.904 555.813 354.818 555.012 354.017C554.211 353.216 553.125 352.766 551.993 352.766C550.86 352.766 549.774 353.216 548.973 354.017C548.173 354.818 547.723 355.904 547.723 357.037V366.582H556.263V357.037Z" stroke="#EB2136" stroke-linecap="round" stroke-linejoin="round"/>
<path d="M595.842 410.295C595.842 409.162 595.392 408.076 594.592 407.275C593.791 406.474 592.705 406.024 591.572 406.024C590.44 406.024 589.354 406.474 588.553 407.275C587.752 408.076 587.303 409.162 587.303 410.295V419.84H595.842V410.295Z" stroke="#EB2136" stroke-linecap="round" stroke-linejoin="round"/>
<path d="M612.772 410.295C612.772 409.162 612.322 408.076 611.521 407.275C610.721 406.474 609.635 406.024 608.502 406.024C607.37 406.024 606.284 406.474 605.483 407.275C604.682 408.076 604.232 409.162 604.232 410.295V419.84H612.772V410.295Z" stroke="#EB2136" stroke-linecap="round" stroke-linejoin="round"/>
<path d="M629.852 410.295C629.852 409.162 629.403 408.076 628.602 407.275C627.801 406.474 626.715 406.024 625.582 406.024C624.45 406.024 623.364 406.474 622.563 407.275C621.762 408.076 621.313 409.162 621.312 410.295V419.84H629.852V410.295Z" stroke="#EB2136" stroke-linecap="round" stroke-linejoin="round"/>
<path d="M646.858 410.295C646.858 409.162 646.408 408.076 645.607 407.275C644.807 406.474 643.721 406.024 642.588 406.024C641.456 406.024 640.37 406.474 639.569 407.275C638.768 408.076 638.318 409.162 638.318 410.295V419.84H646.858V410.295Z" stroke="#EB2136" stroke-linecap="round" stroke-linejoin="round"/>
<path d="M493.756 426.302C493.756 425.169 493.306 424.083 492.506 423.282C491.705 422.481 490.619 422.031 489.486 422.031C488.354 422.031 487.268 422.481 486.467 423.282C485.667 424.083 485.217 425.169 485.217 426.302V433.99H493.756V426.302Z" stroke="#EB2136" stroke-linecap="round" stroke-linejoin="round"/>
<path d="M493.756 445.763C493.756 444.631 493.306 443.544 492.506 442.743C491.705 441.942 490.619 441.492 489.486 441.492C488.354 441.492 487.268 441.942 486.467 442.743C485.667 443.544 485.217 444.631 485.217 445.763V451.594H493.756V445.763Z" stroke="#EB2136" stroke-linecap="round" stroke-linejoin="round"/>
<path d="M516.235 445.763C516.235 445.202 516.125 444.647 515.91 444.129C515.695 443.611 515.381 443.14 514.984 442.743C514.588 442.347 514.117 442.032 513.599 441.817C513.081 441.603 512.526 441.492 511.965 441.492C511.404 441.492 510.849 441.603 510.331 441.817C509.813 442.032 509.342 442.347 508.946 442.743C508.549 443.14 508.235 443.611 508.02 444.129C507.806 444.647 507.695 445.202 507.695 445.763V451.594H516.235V445.763Z" stroke="#EB2136" stroke-linecap="round" stroke-linejoin="round"/>
<path d="M553.162 382.44C551.81 382.438 550.47 382.702 549.22 383.218C547.97 383.734 546.834 384.491 545.877 385.447C544.92 386.402 544.161 387.537 543.643 388.787C543.125 390.036 542.858 391.375 542.858 392.728V408.438H524.851V458.019H466.967" stroke="#EB2136" stroke-linecap="round" stroke-linejoin="round"/>
<path d="M524.851 502.828C524.851 497.972 522.923 493.315 519.49 489.881C516.057 486.448 511.402 484.518 506.547 484.518C501.692 484.518 497.036 486.448 493.604 489.881C490.171 493.315 488.242 497.972 488.242 502.828" stroke="#EB2136" stroke-linecap="round" stroke-linejoin="round"/>
<path d="M507.735 580.673C507.735 579.54 507.285 578.454 506.485 577.653C505.684 576.852 504.598 576.402 503.465 576.402C502.333 576.402 501.247 576.852 500.446 577.653C499.645 578.454 499.195 579.54 499.195 580.673V590.2H507.735V580.673Z" stroke="#EB2136" stroke-linecap="round" stroke-linejoin="round"/>
<path d="M489.485 580.673C489.485 579.54 489.035 578.454 488.235 577.653C487.434 576.852 486.348 576.402 485.215 576.402C484.083 576.402 482.997 576.852 482.196 577.653C481.395 578.454 480.945 579.54 480.945 580.673V590.2H489.485V580.673Z" stroke="#EB2136" stroke-linecap="round" stroke-linejoin="round"/>
<path d="M507.735 600.041C507.735 598.909 507.285 597.822 506.485 597.021C505.684 596.22 504.598 595.77 503.465 595.77C502.333 595.77 501.247 596.22 500.446 597.021C499.645 597.822 499.195 598.909 499.195 600.041V609.586H507.735V600.041Z" stroke="#EB2136" stroke-linecap="round" stroke-linejoin="round"/>
<path d="M489.485 600.041C489.485 598.909 489.035 597.822 488.235 597.021C487.434 596.22 486.348 595.77 485.215 595.77C484.083 595.77 482.997 596.22 482.196 597.021C481.395 597.822 480.945 598.909 480.945 600.041V609.586H489.485V600.041Z" stroke="#EB2136" stroke-linecap="round" stroke-linejoin="round"/>
<path d="M507.735 619.428C507.735 618.296 507.285 617.209 506.485 616.408C505.684 615.607 504.598 615.157 503.465 615.157C502.333 615.157 501.247 615.607 500.446 616.408C499.645 617.209 499.195 618.296 499.195 619.428V628.973H507.735V619.428Z" stroke="#EB2136" stroke-linecap="round" stroke-linejoin="round"/>
<path d="M524.85 580.673C524.85 579.54 524.4 578.454 523.599 577.653C522.798 576.852 521.712 576.402 520.58 576.402C519.448 576.402 518.362 576.852 517.561 577.653C516.76 578.454 516.311 579.54 516.311 580.673V590.2H524.85V580.673Z" stroke="#EB2136" stroke-linecap="round" stroke-linejoin="round"/>
<path d="M524.85 600.041C524.85 598.909 524.4 597.822 523.599 597.021C522.798 596.22 521.712 595.77 520.58 595.77C519.448 595.77 518.362 596.22 517.561 597.021C516.76 597.822 516.311 598.909 516.311 600.041V609.586H524.85V600.041Z" stroke="#EB2136" stroke-linecap="round" stroke-linejoin="round"/>
<path d="M524.85 619.428C524.85 618.296 524.4 617.209 523.599 616.408C522.798 615.607 521.712 615.157 520.58 615.157C519.448 615.157 518.362 615.607 517.561 616.408C516.76 617.209 516.311 618.296 516.311 619.428V628.973H524.85V619.428Z" stroke="#EB2136" stroke-linecap="round" stroke-linejoin="round"/>
<path d="M489.485 619.428C489.485 618.296 489.035 617.209 488.235 616.408C487.434 615.607 486.348 615.157 485.215 615.157C484.083 615.157 482.997 615.607 482.196 616.408C481.395 617.209 480.945 618.296 480.945 619.428V628.973H489.485V619.428Z" stroke="#EB2136" stroke-linecap="round" stroke-linejoin="round"/>
<path d="M702.456 532.02H707.432V523.2H702.456V532.02Z" stroke="#EB2136" stroke-linecap="round" stroke-linejoin="round"/>
<path d="M685.955 532.02H690.93V523.2H685.955V532.02Z" stroke="#EB2136" stroke-linecap="round" stroke-linejoin="round"/>
<path d="M550.658 425.912H555.633V417.092H550.658V425.912Z" stroke="#EB2136" stroke-linecap="round" stroke-linejoin="round"/>
<path d="M550.658 451.186H555.633V442.365H550.658V451.186Z" stroke="#EB2136" stroke-linecap="round" stroke-linejoin="round"/>
<path d="M835.788 557.758H840.764V548.937H835.788V557.758Z" stroke="#EB2136" stroke-linecap="round" stroke-linejoin="round"/>
<path d="M603.843 627.395H612.902V613.17H603.843V627.395Z" stroke="#EB2136" stroke-linecap="round" stroke-linejoin="round"/>
<path d="M623.539 589.735H608.391" stroke="#EB2136" stroke-linecap="round" stroke-linejoin="round"/>
<path d="M608.19 589.735H593.041" stroke="#EB2136" stroke-linecap="round" stroke-linejoin="round"/>
<path d="M635.309 637.088H608.391" stroke="#EB2136" stroke-linecap="round" stroke-linejoin="round"/>
<path d="M635.309 543.923H608.391" stroke="#EB2136" stroke-linecap="round" stroke-linejoin="round"/>
<path d="M645.205 543.923H635.311V637.088H680.794V589.735H718.777" stroke="#EB2136" stroke-linecap="round" stroke-linejoin="round"/>
<path d="M563.204 543.923V579.206L581.471 589.735H535.988V579.206" stroke="#EB2136" stroke-linecap="round" stroke-linejoin="round"/>
<path d="M581.473 637.088H608.391" stroke="#EB2136" stroke-linecap="round" stroke-linejoin="round"/>
<path d="M581.473 543.923H608.391" stroke="#EB2136" stroke-linecap="round" stroke-linejoin="round"/>
<path d="M571.558 543.923H581.471V637.088H535.988V589.735" stroke="#EB2136" stroke-linecap="round" stroke-linejoin="round"/>
<path d="M571.558 543.923H524.85V557.851" stroke="#EB2136" stroke-linecap="round" stroke-linejoin="round"/>
<path d="M608.391 525.428C635.309 525.428 645.204 543.998 645.204 543.998" stroke="#EB2136" stroke-linecap="round" stroke-linejoin="round"/>
<path d="M608.391 525.428C581.472 525.428 571.559 543.998 571.559 543.998" stroke="#EB2136" stroke-linecap="round" stroke-linejoin="round"/>
<path d="M608.391 457.945C635.309 457.945 645.204 476.515 645.204 476.515L667.797 487.898" stroke="#EB2136" stroke-linecap="round" stroke-linejoin="round"/>
<path d="M608.391 457.945C581.472 457.945 571.559 476.515 571.559 476.515" stroke="#EB2136" stroke-linecap="round" stroke-linejoin="round"/>
<path d="M618.344 427.806C645.262 427.806 655.176 446.376 655.176 446.376" stroke="#EB2136" stroke-linecap="round" stroke-linejoin="round"/>
<path d="M618.343 427.806C591.424 427.806 581.529 446.376 581.529 446.376" stroke="#EB2136" stroke-linecap="round" stroke-linejoin="round"/>
<path d="M581.471 533.45V476.515H524.85V543.923" stroke="#EB2136" stroke-linecap="round" stroke-linejoin="round"/>
<path d="M581.471 499.505H524.85" stroke="#EB2136" stroke-linecap="round" stroke-linejoin="round"/>
<path d="M750.556 602.734V637.088H680.791" stroke="#EB2136" stroke-linecap="round" stroke-linejoin="round"/>
<path d="M718.85 602.734V637.088" stroke="#EB2136" stroke-linecap="round" stroke-linejoin="round"/>
<path d="M718.778 583.31L704.725 571.778" stroke="#EB2136" stroke-linecap="round" stroke-linejoin="round"/>
<path d="M710.331 589.735L688.443 571.778" stroke="#EB2136" stroke-linecap="round" stroke-linejoin="round"/>
<path d="M581.47 488.01L567.436 476.515" stroke="#EB2136" stroke-linecap="round" stroke-linejoin="round"/>
<path d="M580.061 499.504L552.01 476.515" stroke="#EB2136" stroke-linecap="round" stroke-linejoin="round"/>
<path d="M564.614 499.504L536.562 476.515" stroke="#EB2136" stroke-linecap="round" stroke-linejoin="round"/>
<path d="M549.169 499.504L524.85 479.56" stroke="#EB2136" stroke-linecap="round" stroke-linejoin="round"/>
<path d="M533.742 499.504L524.85 492.225" stroke="#EB2136" stroke-linecap="round" stroke-linejoin="round"/>
<path d="M694.05 589.735L674.594 573.784" stroke="#EB2136" stroke-linecap="round" stroke-linejoin="round"/>
<path d="M750.557 532.002H779.332L816.61 545.316H750.557" stroke="#EB2136" stroke-linecap="round" stroke-linejoin="round"/>
<path d="M816.61 545.316V637.088H750.557" stroke="#EB2136" stroke-linecap="round" stroke-linejoin="round"/>
<path d="M816.611 563.273L838.276 571.778H816.611" stroke="#EB2136" stroke-linecap="round" stroke-linejoin="round"/>
<path d="M838.276 571.778V637.088H816.611" stroke="#EB2136" stroke-linecap="round" stroke-linejoin="round"/>
<path d="M860.869 538.668H797.973" stroke="#EB2136" stroke-linecap="round" stroke-linejoin="round"/>
<path d="M761.551 545.316V637.088" stroke="#EB2136" stroke-linecap="round" stroke-linejoin="round"/>
<path d="M466.984 517.313C482.449 517.313 507.214 527.601 524.85 557.851L535.989 565.446H466.984" stroke="#EB2136" stroke-linecap="round" stroke-linejoin="round"/>
<path d="M535.988 565.446V579.206H563.204" stroke="#EB2136" stroke-linecap="round" stroke-linejoin="round"/>
<path d="M524.85 557.851H466.984" stroke="#EB2136" stroke-linecap="round" stroke-linejoin="round"/>
<path d="M535.989 637.088H466.984" stroke="#EB2136" stroke-linecap="round" stroke-linejoin="round"/>
<path d="M524.85 476.515H466.984" stroke="#EB2136" stroke-linecap="round" stroke-linejoin="round"/>
<path d="M512.691 541.045V485.596" stroke="#EB2136" stroke-linecap="round" stroke-linejoin="round"/>
<path d="M500.402 485.596V529.829" stroke="#EB2136" stroke-linecap="round" stroke-linejoin="round"/>
<path d="M524.851 502.828H488.242V522.531" stroke="#EB2136" stroke-linecap="round" stroke-linejoin="round"/>
<path d="M478.96 502.828H466.967" stroke="#EB2136" stroke-linecap="round" stroke-linejoin="round"/>
<path d="M553.369 382.44C556.099 382.44 558.716 383.523 560.648 385.452C562.58 387.381 563.668 389.998 563.673 392.728V408.438H581.68V466.005" stroke="#EB2136" stroke-linecap="round" stroke-linejoin="round"/>
<path d="M466.984 403.406C483.692 403.406 516.18 411.836 524.85 446.785" stroke="#EB2136" stroke-linecap="round" stroke-linejoin="round"/>
<path d="M533.743 408.364V382.477H466.984" stroke="#EB2136" stroke-linecap="round" stroke-linejoin="round"/>
<path d="M581.472 366.582H466.984" stroke="#EB2136" stroke-linecap="round" stroke-linejoin="round"/>
<path d="M466.984 374.622H589.974" stroke="#EB2136" stroke-linecap="round" stroke-linejoin="round"/>
<path d="M581.473 374.622V408.364" stroke="#EB2136" stroke-linecap="round" stroke-linejoin="round"/>
<path d="M564.615 346.47H466.984" stroke="#EB2136" stroke-linecap="round" stroke-linejoin="round"/>
<path d="M474.373 285.431L466.984 272.191" stroke="#EB2136" stroke-linecap="round" stroke-linejoin="round"/>
<path d="M466.984 272.191V246.955" stroke="#EB2136" stroke-linecap="round" stroke-linejoin="round"/>
<path d="M655.249 481.566V446.376H581.604" stroke="#EB2136" stroke-linecap="round" stroke-linejoin="round"/>
<path d="M688.443 461.362V484.24" stroke="#EB2136" stroke-linecap="round" stroke-linejoin="round"/>
<path d="M647.99 437.091L655.249 434.956" stroke="#EB2136" stroke-linecap="round" stroke-linejoin="round"/>
<path d="M655.249 398.54H581.604" stroke="#EB2136" stroke-linecap="round" stroke-linejoin="round"/>
<path d="M636.833 391.502H581.604" stroke="#EB2136" stroke-linecap="round" stroke-linejoin="round"/>
<path d="M740.96 469.198L737.562 492.077" stroke="#EB2136" stroke-linecap="round" stroke-linejoin="round"/>
<path d="M779.334 532.002V525.354" stroke="#EB2136" stroke-linecap="round" stroke-linejoin="round"/>
<path d="M466.967 284.261H466.984H466.967Z" stroke="#EB2136" stroke-width="3" stroke-linecap="round" stroke-linejoin="round"/>
<path d="M822.181 525.428H779.334V492.002L770.572 432.579V333.769L776.605 325.412V318.913H770.572V274.735L758.505 219.026L746.438 274.735V318.838H740.404V325.338L746.438 333.694V432.579L741.017 469.124H737.62L702.495 455.308L688.498 461.288V440.322L663.083 432.579L655.249 434.881V398.54L636.833 391.502C636.833 391.502 620.849 374.622 589.976 374.622L581.473 366.581L571.56 346.47H564.617C564.617 346.47 540.279 294.159 466.967 284.261C393.675 294.159 369.337 346.47 369.337 346.47H362.394L352.48 366.581L343.977 374.622C313.105 374.622 297.121 391.502 297.121 391.502L278.705 398.54V434.956L270.87 432.653L245.511 440.322V461.362L231.514 455.382L196.39 469.198H192.992L187.646 432.579V333.769L193.679 325.412V318.913H187.646V274.735L175.579 219.026L163.512 274.735V318.838H157.478V325.338L163.512 333.694V432.579L154.694 492.002V525.428H111.772L73.084 538.742V637.163H860.87V538.742L822.181 525.428Z" stroke="#EB2136" stroke-width="3" stroke-linecap="round" stroke-linejoin="round"/>
<path d="M1128.49 275.552C1130.35 272.302 1126.1 260.696 1126.1 260.696C1126.1 260.696 1121.85 272.302 1123.7 275.552C1119.06 281.94 1121.14 283.333 1124.39 286.806L1122.7 378.615H1129.5L1127.81 286.806C1131.06 283.333 1133.14 281.94 1128.49 275.552Z" fill="#FBF8F8"/>
<path d="M1126.1 490.387H1088.21" stroke="#EB2136" stroke-linecap="round" stroke-linejoin="round"/>
<path d="M1091.22 509.179V496.645L1126.1 508.028" stroke="#EB2136" stroke-linecap="round" stroke-linejoin="round"/>
<path d="M1126.1 572.558H1091.22" stroke="#EB2136" stroke-linecap="round" stroke-linejoin="round"/>
<path d="M1126.1 519.17H1088.19" stroke="#EB2136" stroke-linecap="round" stroke-linejoin="round"/>
<path d="M1105.55 511.501C1105.61 510.717 1105.96 509.985 1106.54 509.452C1107.12 508.918 1107.87 508.621 1108.66 508.621C1109.44 508.621 1110.2 508.918 1110.78 509.452C1111.35 509.985 1111.71 510.717 1111.77 511.501V519.17H1105.55V511.501Z" stroke="#EB2136" stroke-linecap="round" stroke-linejoin="round"/>
<path d="M1126.1 544.462H1088.19" stroke="#EB2136" stroke-linecap="round" stroke-linejoin="round"/>
<path d="M1091.22 519.17L1126.1 544.462" stroke="#EB2136" stroke-linecap="round" stroke-linejoin="round"/>
<path d="M1126.1 519.17L1091.22 544.462" stroke="#EB2136" stroke-linecap="round" stroke-linejoin="round"/>
<path d="M1088.19 447.899H1126.1" stroke="#EB2136" stroke-linecap="round" stroke-linejoin="round"/>
<path d="M1123.24 459.746H1111.91V490.387H1123.24V459.746Z" stroke="#EB2136" stroke-linecap="round" stroke-linejoin="round"/>
<path d="M1106.96 459.746H1095.63V490.387H1106.96V459.746Z" stroke="#EB2136" stroke-linecap="round" stroke-linejoin="round"/>
<path d="M1119.29 387.788H1126.1" stroke="#EB2136" stroke-linecap="round" stroke-linejoin="round"/>
<path d="M1123.24 401.474V387.788" stroke="#EB2136" stroke-linecap="round" stroke-linejoin="round"/>
<path d="M1116.52 401.474V387.788" stroke="#EB2136" stroke-linecap="round" stroke-linejoin="round"/>
<path d="M1109.78 401.474V387.788" stroke="#EB2136" stroke-linecap="round" stroke-linejoin="round"/>
<path d="M1122.7 378.615L1124.41 286.806H1126.1" stroke="#EB2136" stroke-linecap="round" stroke-linejoin="round"/>
<path d="M1126.1 254.661V244.095" stroke="#EB2136" stroke-linecap="round" stroke-linejoin="round"/>
<path d="M1128.11 412.598H1124.12V416.59H1128.11V412.598Z" stroke="#EB2136" stroke-linecap="round" stroke-linejoin="round"/>
<path d="M1126.1 490.387H1164.01" stroke="#EB2136" stroke-linecap="round" stroke-linejoin="round"/>
<path d="M1160.98 509.179V496.645L1126.1 508.028" stroke="#EB2136" stroke-linecap="round" stroke-linejoin="round"/>
<path d="M1126.1 572.558H1160.98V551.667" stroke="#EB2136" stroke-linecap="round" stroke-linejoin="round"/>
<path d="M1126.1 519.17H1164.01" stroke="#EB2136" stroke-linecap="round" stroke-linejoin="round"/>
<path d="M1146.65 511.501C1146.59 510.717 1146.24 509.985 1145.66 509.452C1145.09 508.918 1144.33 508.621 1143.54 508.621C1142.76 508.621 1142 508.918 1141.42 509.452C1140.85 509.985 1140.49 510.717 1140.43 511.501V519.17H1146.65V511.501Z" stroke="#EB2136" stroke-linecap="round" stroke-linejoin="round"/>
<path d="M1126.1 544.462H1164.01" stroke="#EB2136" stroke-linecap="round" stroke-linejoin="round"/>
<path d="M1160.98 519.17L1126.1 544.462" stroke="#EB2136" stroke-linecap="round" stroke-linejoin="round"/>
<path d="M1126.1 519.17L1160.98 544.462" stroke="#EB2136" stroke-linecap="round" stroke-linejoin="round"/>
<path d="M1164.01 447.899H1126.1" stroke="#EB2136" stroke-linecap="round" stroke-linejoin="round"/>
<path d="M1128.98 490.387H1140.3V459.746H1128.98V490.387Z" stroke="#EB2136" stroke-linecap="round" stroke-linejoin="round"/>
<path d="M1145.26 490.387H1156.58V459.746H1145.26V490.387Z" stroke="#EB2136" stroke-linecap="round" stroke-linejoin="round"/>
<path d="M1132.89 387.788H1126.1" stroke="#EB2136" stroke-linecap="round" stroke-linejoin="round"/>
<path d="M1128.96 401.474V387.788" stroke="#EB2136" stroke-linecap="round" stroke-linejoin="round"/>
<path d="M1135.7 401.474V387.788" stroke="#EB2136" stroke-linecap="round" stroke-linejoin="round"/>
<path d="M1142.42 401.474V387.788" stroke="#EB2136" stroke-linecap="round" stroke-linejoin="round"/>
<path d="M1129.52 378.615L1127.81 286.806H1126.1" stroke="#EB2136" stroke-linecap="round" stroke-linejoin="round"/>
<path d="M1127.81 286.806C1131.06 283.333 1133.14 281.94 1128.49 275.552C1130.35 272.302 1126.1 260.696 1126.1 260.696C1126.1 260.696 1121.85 272.302 1123.7 275.552C1119.06 281.94 1121.14 283.333 1124.39 286.806" stroke="#EB2136" stroke-linecap="round" stroke-linejoin="round"/>
<path d="M1160.98 572.558H1274.54" stroke="#EB2136" stroke-linecap="round" stroke-linejoin="round"/>
<path d="M1182.89 589.958L1162.23 599.707H1182.89" stroke="#EB2136" stroke-linecap="round" stroke-linejoin="round"/>
<path d="M1091.24 586.485H1122.31L1140.43 578.816H1182.89" stroke="#EB2136" stroke-linecap="round" stroke-linejoin="round"/>
<path d="M1162.23 599.707H1087.06" stroke="#EB2136" stroke-linecap="round" stroke-linejoin="round"/>
<path d="M1168.48 599.707V626.559" stroke="#EB2136" stroke-linecap="round" stroke-linejoin="round"/>
<path d="M1171.9 626.559H1165.09V637.088H1171.9V626.559Z" stroke="#EB2136" stroke-linecap="round" stroke-linejoin="round"/>
<path d="M1175.93 637.088V610.459H1182.89" stroke="#EB2136" stroke-linecap="round" stroke-linejoin="round"/>
<path d="M1144.81 610.459H1136.31V626.559H1144.81V610.459Z" stroke="#EB2136" stroke-linecap="round" stroke-linejoin="round"/>
<path d="M1136.31 610.459L1140.58 606.281L1144.83 610.459" stroke="#EB2136" stroke-linecap="round" stroke-linejoin="round"/>
<path d="M1127.96 610.459H1119.46V626.559H1127.96V610.459Z" stroke="#EB2136" stroke-linecap="round" stroke-linejoin="round"/>
<path d="M1119.46 610.459L1123.71 606.281L1127.96 610.459" stroke="#EB2136" stroke-linecap="round" stroke-linejoin="round"/>
<path d="M1111.08 610.459H1102.58V626.559H1111.08V610.459Z" stroke="#EB2136" stroke-linecap="round" stroke-linejoin="round"/>
<path d="M1102.6 610.459L1106.85 606.281L1111.1 610.459" stroke="#EB2136" stroke-linecap="round" stroke-linejoin="round"/>
<path d="M1182.89 589.958L1203.53 599.707H1182.89" stroke="#EB2136" stroke-linecap="round" stroke-linejoin="round"/>
<path d="M1274.56 586.485H1243.45L1225.33 578.816H1182.89" stroke="#EB2136" stroke-linecap="round" stroke-linejoin="round"/>
<path d="M1203.53 599.707H1278.72" stroke="#EB2136" stroke-linecap="round" stroke-linejoin="round"/>
<path d="M1197.26 599.707V626.559" stroke="#EB2136" stroke-linecap="round" stroke-linejoin="round"/>
<path d="M1193.86 637.088H1200.68V626.559H1193.86V637.088Z" stroke="#EB2136" stroke-linecap="round" stroke-linejoin="round"/>
<path d="M1189.85 637.088V610.459H1182.89" stroke="#EB2136" stroke-linecap="round" stroke-linejoin="round"/>
<path d="M1220.95 626.578H1229.45V610.478H1220.95V626.578Z" stroke="#EB2136" stroke-linecap="round" stroke-linejoin="round"/>
<path d="M1229.45 610.459L1225.18 606.281L1220.93 610.459" stroke="#EB2136" stroke-linecap="round" stroke-linejoin="round"/>
<path d="M1237.8 626.578H1246.31V610.478H1237.8V626.578Z" stroke="#EB2136" stroke-linecap="round" stroke-linejoin="round"/>
<path d="M1246.3 610.459L1242.05 606.281L1237.8 610.459" stroke="#EB2136" stroke-linecap="round" stroke-linejoin="round"/>
<path d="M1254.68 626.578H1263.18V610.478H1254.68V626.578Z" stroke="#EB2136" stroke-linecap="round" stroke-linejoin="round"/>
<path d="M1263.18 610.459L1258.91 606.281L1254.66 610.459" stroke="#EB2136" stroke-linecap="round" stroke-linejoin="round"/>
<path d="M1274.54 572.558L1259.91 551.667" stroke="#0019FF" stroke-linecap="round" stroke-linejoin="round"/>
<path d="M1261.97 572.558L1247.35 551.667" stroke="#EB2136" stroke-linecap="round" stroke-linejoin="round"/>
<path d="M1249.4 572.558L1234.78 551.667" stroke="#EB2136" stroke-linecap="round" stroke-linejoin="round"/>
<path d="M1236.84 572.558L1222.21 551.667" stroke="#EB2136" stroke-linecap="round" stroke-linejoin="round"/>
<path d="M1224.27 572.558L1209.64 551.667" stroke="#EB2136" stroke-linecap="round" stroke-linejoin="round"/>
<path d="M1211.7 572.558L1197.07 551.667" stroke="#EB2136" stroke-linecap="round" stroke-linejoin="round"/>
<path d="M1199.11 572.558L1184.5 551.667" stroke="#EB2136" stroke-linecap="round" stroke-linejoin="round"/>
<path d="M1186.55 572.558L1171.94 551.667" stroke="#EB2136" stroke-linecap="round" stroke-linejoin="round"/>
<path d="M1173.98 572.558L1160.98 553.97" stroke="#EB2136" stroke-linecap="round" stroke-linejoin="round"/>
<path d="M1274.43 599.707L1265.19 586.504" stroke="#0019FF" stroke-linecap="round" stroke-linejoin="round"/>
<path d="M1261.86 599.707L1252.62 586.504" stroke="#EB2136" stroke-linecap="round" stroke-linejoin="round"/>
<path d="M1249.29 599.707L1238.6 584.424" stroke="#EB2136" stroke-linecap="round" stroke-linejoin="round"/>
<path d="M1236.73 599.707L1222.1 578.816" stroke="#EB2136" stroke-linecap="round" stroke-linejoin="round"/>
<path d="M1224.16 599.707L1209.53 578.816" stroke="#EB2136" stroke-linecap="round" stroke-linejoin="round"/>
<path d="M1211.59 599.707L1196.96 578.816" stroke="#EB2136" stroke-linecap="round" stroke-linejoin="round"/>
<path d="M1196.78 596.532L1184.39 578.816" stroke="#EB2136" stroke-linecap="round" stroke-linejoin="round"/>
<path d="M1091.14 599.707L1100.39 586.504" stroke="#EB2136" stroke-linecap="round" stroke-linejoin="round"/>
<path d="M1103.71 599.707L1112.96 586.504" stroke="#EB2136" stroke-linecap="round" stroke-linejoin="round"/>
<path d="M1116.28 599.707L1126.97 584.424" stroke="#EB2136" stroke-linecap="round" stroke-linejoin="round"/>
<path d="M1128.85 599.707L1143.48 578.816" stroke="#EB2136" stroke-linecap="round" stroke-linejoin="round"/>
<path d="M1141.42 599.707L1156.04 578.816" stroke="#EB2136" stroke-linecap="round" stroke-linejoin="round"/>
<path d="M1154 599.707L1168.61 578.816" stroke="#EB2136" stroke-linecap="round" stroke-linejoin="round"/>
<path d="M1168.8 596.532L1181.18 578.816" stroke="#EB2136" stroke-linecap="round" stroke-linejoin="round"/>
<path d="M1110.24 401.474H1126.1" stroke="#EB2136" stroke-linecap="round" stroke-linejoin="round"/>
<path d="M1141.95 401.474H1126.1" stroke="#EB2136" stroke-linecap="round" stroke-linejoin="round"/>
<path d="M1287 599.707L1277.72 586.504H1274.5V572.577L1259.88 551.686H1160.98V509.179H1161.22L1180.25 490.387H1164.01V447.899H1169.8C1167.79 447.084 1165.96 445.859 1164.44 444.303C1162.93 442.746 1161.75 440.891 1160.98 438.855C1156.58 424.687 1154.95 423.275 1147.99 414.919C1141.03 406.562 1141.99 401.474 1141.99 401.474H1147.99V387.788H1132.93V380.825L1126.12 376.405L1119.31 380.825V387.788H1104.27V401.474H1110.3C1110.3 401.474 1111.3 406.562 1104.31 414.919C1097.31 423.275 1095.69 424.687 1091.31 438.855C1090.55 440.893 1089.37 442.749 1087.85 444.306C1086.34 445.863 1084.51 447.087 1082.49 447.899H1088.28V490.387H1072.02L1091.05 509.179H1091.29V572.558V586.486H1087.88L1078.59 599.689H1087.06V637.07H1278.74V599.707H1287Z" stroke="#EB2136" stroke-width="3" stroke-linecap="round" stroke-linejoin="round"/>
<path d="M1124.26 294.159H1094.71V309.795H1123.95" stroke="#EB2136" stroke-linecap="round" stroke-linejoin="round"/>
<path d="M1279.59 456.032C1334.71 610.162 1279.01 610.292 1279.59 610.162C1280.17 610.329 1224.47 610.162 1279.59 456.032Z" fill="#FBF8F8" stroke="#EB2136" stroke-miterlimit="10"/>
<path d="M1279.57 637.088V538.835" stroke="#EB2136" stroke-linecap="round" stroke-linejoin="round"/>
<path d="M1279.57 610.125C1280.15 610.292 1224.46 610.125 1279.57 455.995" stroke="#EB2136" stroke-width="3" stroke-linecap="round" stroke-linejoin="round"/>
<path d="M1279.59 610.125C1279.02 610.292 1334.71 610.125 1279.59 455.995" stroke="#EB2136" stroke-width="3" stroke-linecap="round" stroke-linejoin="round"/>
<path d="M274.639 448.14C271.566 448.14 268.523 448.746 265.684 449.923C262.844 451.1 260.265 452.825 258.093 455C255.92 457.175 254.198 459.756 253.023 462.597C251.849 465.438 251.246 468.483 251.248 471.557H298.049C298.049 465.346 295.583 459.39 291.193 454.999C286.802 450.607 280.848 448.14 274.639 448.14Z" fill="#FBF8F8" stroke="#EB2136" stroke-miterlimit="10"/>
<path d="M321.44 448.14C318.367 448.14 315.324 448.746 312.484 449.923C309.645 451.1 307.066 452.825 304.893 455C302.721 457.175 300.999 459.756 299.824 462.597C298.65 465.438 298.046 468.483 298.049 471.557H344.85C344.853 468.481 344.249 465.435 343.073 462.593C341.898 459.751 340.173 457.168 337.999 454.993C335.825 452.819 333.243 451.094 330.402 449.918C327.561 448.742 324.515 448.138 321.44 448.14Z" fill="#FBF8F8" stroke="#EB2136" stroke-miterlimit="10"/>
<path d="M271.188 481.956C269.943 484.249 269.162 486.766 268.89 489.361C268.617 491.956 268.859 494.58 269.6 497.082C270.341 499.584 271.568 501.916 273.21 503.944C274.852 505.972 276.878 507.656 279.171 508.901L298.144 473.971C295.85 472.723 293.333 471.939 290.736 471.665C288.14 471.391 285.515 471.632 283.011 472.373C280.508 473.115 278.175 474.343 276.146 475.987C274.117 477.632 272.433 479.66 271.188 481.956Z" fill="#FBF8F8" stroke="#EB2136" stroke-miterlimit="10"/>
<path d="M325.022 481.956C327.531 486.589 328.1 492.028 326.603 497.08C325.106 502.132 321.667 506.383 317.039 508.901L298.066 473.971C300.36 472.723 302.877 471.939 305.474 471.665C308.071 471.391 310.696 471.632 313.199 472.373C315.703 473.115 318.036 474.343 320.064 475.987C322.093 477.632 323.778 479.66 325.022 481.956Z" fill="#FBF8F8" stroke="#EB2136" stroke-miterlimit="10"/>
<path d="M274.639 448.14C271.566 448.14 268.523 448.746 265.684 449.923C262.844 451.1 260.265 452.825 258.093 455C255.92 457.175 254.198 459.756 253.023 462.597C251.849 465.438 251.246 468.483 251.248 471.557H298.049C298.049 465.346 295.583 459.39 291.193 454.999C286.802 450.607 280.848 448.14 274.639 448.14V448.14Z" stroke="#EB2136" stroke-width="3" stroke-linecap="round" stroke-linejoin="round"/>
<path d="M321.44 448.14C318.367 448.14 315.324 448.746 312.484 449.923C309.645 451.1 307.066 452.825 304.893 455C302.721 457.175 300.999 459.756 299.824 462.597C298.65 465.438 298.046 468.483 298.049 471.557H344.85C344.853 468.481 344.249 465.435 343.073 462.593C341.898 459.751 340.173 457.168 337.999 454.993C335.825 452.819 333.243 451.094 330.402 449.918C327.561 448.742 324.515 448.138 321.44 448.14Z" stroke="#EB2136" stroke-width="3" stroke-linecap="round" stroke-linejoin="round"/>
<path d="M271.188 481.956C269.943 484.249 269.162 486.766 268.89 489.361C268.617 491.956 268.859 494.58 269.6 497.082C270.341 499.584 271.568 501.916 273.21 503.944C274.852 505.972 276.878 507.656 279.171 508.901L298.144 473.971C295.85 472.723 293.333 471.939 290.736 471.665C288.14 471.391 285.515 471.632 283.011 472.373C280.508 473.115 278.175 474.343 276.146 475.987C274.117 477.632 272.433 479.66 271.188 481.956V481.956Z" stroke="#EB2136" stroke-width="3" stroke-linecap="round" stroke-linejoin="round"/>
<path d="M325.022 481.956C327.531 486.589 328.1 492.028 326.603 497.08C325.106 502.132 321.667 506.383 317.039 508.901L298.066 473.971C300.36 472.723 302.877 471.939 305.474 471.665C308.071 471.391 310.696 471.632 313.199 472.373C315.703 473.115 318.036 474.343 320.064 475.987C322.093 477.632 323.778 479.66 325.022 481.956V481.956Z" stroke="#EB2136" stroke-width="3" stroke-linecap="round" stroke-linejoin="round"/>
<path d="M298.049 637.088V472.708" stroke="#EB2136" stroke-linecap="round" stroke-linejoin="round"/>
<path d="M25.4101 373.805C22.3289 373.803 19.2777 374.409 16.4315 375.59C13.5853 376.77 11.0003 378.502 8.82503 380.685C6.64975 382.867 4.92701 385.459 3.7558 388.309C2.58458 391.16 1.98796 394.214 2.00018 397.296H48.8015C48.8113 394.216 48.2136 391.165 47.0426 388.316C45.8717 385.468 44.1505 382.879 41.9777 380.697C39.8049 378.515 37.2232 376.783 34.3802 375.6C31.5373 374.418 28.489 373.808 25.4101 373.805V373.805Z" stroke="#EB2136" stroke-miterlimit="10"/>
<path d="M72.2116 373.805C66.0079 373.805 60.0582 376.27 55.6715 380.658C51.2848 385.046 48.8203 390.998 48.8203 397.203H95.6214C95.6214 394.129 95.0157 391.085 93.8391 388.245C92.6624 385.405 90.9378 382.825 88.7637 380.652C86.5897 378.479 84.0089 376.756 81.1688 375.581C78.3287 374.406 75.285 373.803 72.2116 373.805V373.805Z" stroke="#EB2136" stroke-miterlimit="10"/>
<path d="M21.8634 407.602C19.3484 412.237 18.7765 417.681 20.2735 422.737C21.7705 427.794 25.2137 432.048 29.8461 434.566L48.819 399.617C44.1857 397.102 38.7433 396.53 33.6884 398.027C28.6335 399.524 24.3801 402.969 21.8634 407.602V407.602Z" stroke="#EB2136" stroke-miterlimit="10"/>
<path d="M75.7574 407.602C78.2723 412.237 78.8442 417.681 77.3472 422.737C75.8502 427.794 72.407 432.048 67.7747 434.566L48.8203 399.617C53.4519 397.108 58.8898 396.539 63.9402 398.036C68.9906 399.533 73.2407 402.974 75.7574 407.602Z" stroke="#EB2136" stroke-miterlimit="10"/>
<path d="M25.4101 373.805C22.3289 373.803 19.2777 374.409 16.4315 375.59C13.5853 376.77 11.0003 378.502 8.82503 380.685C6.64975 382.867 4.92701 385.459 3.7558 388.309C2.58458 391.16 1.98796 394.214 2.00018 397.296H48.8015C48.8113 394.216 48.2136 391.165 47.0426 388.316C45.8717 385.468 44.1505 382.879 41.9777 380.697C39.8049 378.515 37.2232 376.783 34.3802 375.6C31.5373 374.418 28.489 373.808 25.4101 373.805Z" fill="#FBF8F8" stroke="#EB2136" stroke-width="3" stroke-linecap="round" stroke-linejoin="round"/>
<path d="M72.2116 373.805C66.0079 373.805 60.0582 376.27 55.6715 380.658C51.2848 385.046 48.8203 390.998 48.8203 397.203H95.6214C95.6214 394.129 95.0157 391.085 93.8391 388.245C92.6624 385.405 90.9378 382.825 88.7637 380.652C86.5897 378.479 84.0089 376.756 81.1688 375.581C78.3287 374.406 75.285 373.803 72.2116 373.805Z" fill="#FBF8F8" stroke="#EB2136" stroke-width="3" stroke-linecap="round" stroke-linejoin="round"/>
<path d="M21.8634 407.602C19.3484 412.237 18.7765 417.681 20.2735 422.737C21.7705 427.794 25.2137 432.048 29.8461 434.566L48.819 399.617C44.1857 397.102 38.7433 396.53 33.6884 398.027C28.6335 399.524 24.3801 402.969 21.8634 407.602Z" fill="#FBF8F8" stroke="#EB2136" stroke-width="3" stroke-linecap="round" stroke-linejoin="round"/>
<path d="M75.7574 407.602C78.2723 412.237 78.8442 417.681 77.3472 422.737C75.8502 427.794 72.407 432.048 67.7747 434.566L48.8203 399.617C53.4519 397.108 58.8898 396.539 63.9402 398.036C68.9906 399.533 73.2407 402.974 75.7574 407.602Z" fill="#FBF8F8" stroke="#EB2136" stroke-width="3" stroke-linecap="round" stroke-linejoin="round"/>
<path d="M48.8203 637.088V398.373" stroke="#EB2136" stroke-linecap="round" stroke-linejoin="round"/>
<path d="M1006.97 592.781C1006.97 592.781 1079.54 542.364 1037.21 522.215C1055.35 471.798 1028.71 427.509 1006.97 427.509C985.233 427.509 958.575 471.873 976.731 522.215C934.385 542.364 1006.97 592.781 1006.97 592.781Z" fill="#FBF8F8" stroke="#EB2136" stroke-miterlimit="10"/>
<path d="M1006.97 592.781C1006.97 592.781 934.385 542.364 976.731 522.215C958.575 471.798 985.215 427.509 1006.97 427.509" stroke="#EB2136" stroke-width="3" stroke-linecap="round" stroke-linejoin="round"/>
<path d="M1006.97 592.781C1006.97 592.781 1079.54 542.364 1037.21 522.215C1055.35 471.798 1028.71 427.509 1006.97 427.509" stroke="#EB2136" stroke-width="3" stroke-linecap="round" stroke-linejoin="round"/>
<path d="M1006.97 461.306V637.088" stroke="#EB2136" stroke-linecap="round" stroke-linejoin="round"/>
<path d="M1028.71 543.886L1006.97 565.78" stroke="#EB2136" stroke-linecap="round" stroke-linejoin="round"/>
<path d="M985.213 543.886L1006.97 565.78" stroke="#EB2136" stroke-linecap="round" stroke-linejoin="round"/>
</svg>
