<svg width="693" height="341" viewBox="0 0 693 341" fill="none" xmlns="http://www.w3.org/2000/svg">
<path d="M24.5703 339.25L689.57 339.25" stroke="#FFDBDF" stroke-width="3" stroke-linecap="round" stroke-linejoin="round"/>
<path d="M277.914 316.133L301.353 235.301" stroke="#0019FF" stroke-linecap="round" stroke-linejoin="round"/>
<path d="M256.221 316.133L301.354 235.301" stroke="#0019FF" stroke-linecap="round" stroke-linejoin="round"/>
<path d="M234.525 316.133L301.354 235.301" stroke="#0019FF" stroke-linecap="round" stroke-linejoin="round"/>
<path d="M212.83 316.133L301.353 235.301" stroke="#0019FF" stroke-linecap="round" stroke-linejoin="round"/>
<path d="M191.145 316.133L301.353 235.301" stroke="#0019FF" stroke-linecap="round" stroke-linejoin="round"/>
<path d="M169.451 316.133L301.354 235.301" stroke="#0019FF" stroke-linecap="round" stroke-linejoin="round"/>
<path d="M147.756 316.133L301.354 235.301" stroke="#0019FF" stroke-linecap="round" stroke-linejoin="round"/>
<path d="M127.045 316.133L172.494 292.215" stroke="#0019FF" stroke-linecap="round" stroke-linejoin="round"/>
<path d="M105.361 316.133L127.539 304.455" stroke="#0019FF" stroke-linecap="round" stroke-linejoin="round"/>
<path d="M298.634 316.133L298.457 321.554" stroke="#0019FF" stroke-linecap="round" stroke-linejoin="round"/>
<path d="M309.107 321.554L308.92 316.133" stroke="#0019FF" stroke-linecap="round" stroke-linejoin="round"/>
<path d="M342.861 159.87C341.23 159.868 339.615 160.189 338.108 160.812C336.6 161.436 335.231 162.35 334.077 163.503C332.923 164.657 332.008 166.026 331.383 167.533C330.759 169.04 330.437 170.656 330.438 172.287H355.275C355.275 170.657 354.954 169.042 354.33 167.535C353.706 166.029 352.792 164.66 351.639 163.507C350.487 162.354 349.118 161.439 347.612 160.815C346.106 160.191 344.492 159.87 342.861 159.87V159.87Z" stroke="#FFDBDF" stroke-miterlimit="10"/>
<path d="M367.709 159.87C366.078 159.868 364.463 160.189 362.955 160.812C361.448 161.436 360.078 162.35 358.925 163.503C357.771 164.657 356.856 166.026 356.231 167.533C355.607 169.04 355.285 170.656 355.285 172.287H380.123C380.123 170.657 379.802 169.042 379.178 167.535C378.554 166.029 377.64 164.66 376.487 163.507C375.334 162.354 373.966 161.439 372.46 160.815C370.954 160.191 369.339 159.87 367.709 159.87Z" stroke="#FFDBDF" stroke-miterlimit="10"/>
<path d="M340.989 177.806C340.326 179.024 339.911 180.36 339.765 181.738C339.62 183.117 339.747 184.511 340.141 185.84C340.534 187.169 341.186 188.407 342.058 189.484C342.931 190.561 344.007 191.455 345.225 192.116L355.284 173.568C352.826 172.237 349.94 171.935 347.26 172.729C344.58 173.524 342.324 175.35 340.989 177.806V177.806Z" stroke="#FFDBDF" stroke-miterlimit="10"/>
<path d="M369.591 177.806C370.926 180.266 371.229 183.155 370.435 185.838C369.64 188.522 367.813 190.78 365.354 192.116L355.285 173.568C357.744 172.233 360.633 171.93 363.315 172.724C365.998 173.519 368.255 175.347 369.591 177.806V177.806Z" stroke="#FFDBDF" stroke-miterlimit="10"/>
<path d="M342.861 159.87C341.23 159.868 339.615 160.189 338.108 160.812C336.6 161.436 335.231 162.35 334.077 163.503C332.923 164.657 332.008 166.026 331.383 167.533C330.759 169.04 330.437 170.656 330.438 172.287H355.275C355.275 170.657 354.954 169.042 354.33 167.535C353.706 166.029 352.792 164.66 351.639 163.507C350.487 162.354 349.118 161.439 347.612 160.815C346.106 160.191 344.492 159.87 342.861 159.87Z" fill="white" stroke="#FFDBDF" stroke-width="3" stroke-linecap="round" stroke-linejoin="round"/>
<path d="M367.709 159.87C366.078 159.868 364.463 160.189 362.955 160.812C361.448 161.436 360.078 162.35 358.925 163.503C357.771 164.657 356.856 166.026 356.231 167.533C355.607 169.04 355.285 170.656 355.285 172.287H380.123C380.123 170.657 379.802 169.042 379.178 167.535C378.554 166.029 377.64 164.66 376.487 163.507C375.334 162.354 373.966 161.439 372.46 160.815C370.954 160.191 369.339 159.87 367.709 159.87Z" fill="white" stroke="#FFDBDF" stroke-width="3" stroke-linecap="round" stroke-linejoin="round"/>
<path d="M340.989 177.806C340.326 179.024 339.911 180.36 339.765 181.738C339.62 183.117 339.747 184.511 340.141 185.84C340.534 187.169 341.186 188.407 342.058 189.484C342.931 190.561 344.007 191.455 345.225 192.116L355.284 173.568C352.826 172.237 349.94 171.935 347.26 172.729C344.58 173.524 342.324 175.35 340.989 177.806Z" fill="white" stroke="#FFDBDF" stroke-width="3" stroke-linecap="round" stroke-linejoin="round"/>
<path d="M369.591 177.806C370.926 180.266 371.229 183.155 370.435 185.838C369.64 188.522 367.813 190.78 365.354 192.116L355.285 173.568C357.744 172.233 360.633 171.93 363.315 172.724C365.998 173.519 368.255 175.347 369.591 177.806Z" fill="white" stroke="#FFDBDF" stroke-width="3" stroke-linecap="round" stroke-linejoin="round"/>
<path d="M355.285 339.046V172.908" stroke="#FFDBDF" stroke-linecap="round" stroke-linejoin="round"/>
<path d="M509.642 24.6669L475.159 2L461.365 21.7103L445.927 84.7833L438.705 319.336H445.602V339.046H478.607H505.701H534.273V327.22L546.588 191.712L509.642 24.6669Z" fill="white" stroke="#FFDBDF" stroke-miterlimit="10"/>
<path d="M445.592 319.336H478.597" stroke="#FFDBDF" stroke-linecap="round" stroke-linejoin="round"/>
<path d="M478.606 339.046V92.6674L445.926 84.7833" stroke="#FFDBDF" stroke-linecap="round" stroke-linejoin="round"/>
<path d="M478.607 92.6675L491.415 36.0003V289.771L505.701 327.22H534.273" stroke="#FFDBDF" stroke-linecap="round" stroke-linejoin="round"/>
<path d="M475.159 2L491.415 36.0003L461.365 21.7103" stroke="#FFDBDF" stroke-linecap="round" stroke-linejoin="round"/>
<path d="M509.631 24.6669L491.404 36.0003" stroke="#FFDBDF" stroke-linecap="round" stroke-linejoin="round"/>
<path d="M505.691 339.046V327.22" stroke="#FFDBDF" stroke-linecap="round" stroke-linejoin="round"/>
<path d="M546.577 191.712L491.404 155.74" stroke="#FFDBDF" stroke-linecap="round" stroke-linejoin="round"/>
<path d="M545.907 199.044L491.404 163.516" stroke="#FFDBDF" stroke-linecap="round" stroke-linejoin="round"/>
<path d="M545.247 206.396L491.404 171.292" stroke="#FFDBDF" stroke-linecap="round" stroke-linejoin="round"/>
<path d="M544.587 213.738L491.404 179.068" stroke="#FFDBDF" stroke-linecap="round" stroke-linejoin="round"/>
<path d="M543.917 221.07L491.404 186.843" stroke="#FFDBDF" stroke-linecap="round" stroke-linejoin="round"/>
<path d="M543.238 228.412L491.404 194.619" stroke="#FFDBDF" stroke-linecap="round" stroke-linejoin="round"/>
<path d="M542.577 235.755L491.404 202.395" stroke="#FFDBDF" stroke-linecap="round" stroke-linejoin="round"/>
<path d="M541.917 243.097L491.404 210.171" stroke="#FFDBDF" stroke-linecap="round" stroke-linejoin="round"/>
<path d="M541.247 250.439L491.404 217.946" stroke="#FFDBDF" stroke-linecap="round" stroke-linejoin="round"/>
<path d="M540.577 257.781L491.404 225.722" stroke="#FFDBDF" stroke-linecap="round" stroke-linejoin="round"/>
<path d="M539.917 265.123L491.404 233.508" stroke="#FFDBDF" stroke-linecap="round" stroke-linejoin="round"/>
<path d="M539.208 272.445L491.404 241.283" stroke="#FFDBDF" stroke-linecap="round" stroke-linejoin="round"/>
<path d="M538.577 279.807L491.404 249.059" stroke="#FFDBDF" stroke-linecap="round" stroke-linejoin="round"/>
<path d="M537.907 287.149L491.404 256.835" stroke="#FFDBDF" stroke-linecap="round" stroke-linejoin="round"/>
<path d="M537.247 294.491L491.404 264.61" stroke="#FFDBDF" stroke-linecap="round" stroke-linejoin="round"/>
<path d="M536.577 301.833L491.404 272.386" stroke="#FFDBDF" stroke-linecap="round" stroke-linejoin="round"/>
<path d="M535.907 309.175L491.404 280.162" stroke="#FFDBDF" stroke-linecap="round" stroke-linejoin="round"/>
<path d="M535.237 316.517L491.404 287.938" stroke="#FFDBDF" stroke-linecap="round" stroke-linejoin="round"/>
<path d="M534.568 323.85L494.43 297.684" stroke="#FFDBDF" stroke-linecap="round" stroke-linejoin="round"/>
<path d="M527.8 327.22L498.381 308.032" stroke="#FFDBDF" stroke-linecap="round" stroke-linejoin="round"/>
<path d="M515.869 327.22L502.361 318.41" stroke="#FFDBDF" stroke-linecap="round" stroke-linejoin="round"/>
<path d="M463.325 88.9816L445.67 93.0813" stroke="#FFDBDF" stroke-linecap="round" stroke-linejoin="round"/>
<path d="M478.596 98.4229L445.266 106.159" stroke="#FFDBDF" stroke-linecap="round" stroke-linejoin="round"/>
<path d="M478.598 111.412L444.863 119.247" stroke="#FFDBDF" stroke-linecap="round" stroke-linejoin="round"/>
<path d="M478.597 124.401L444.459 132.334" stroke="#FFDBDF" stroke-linecap="round" stroke-linejoin="round"/>
<path d="M478.597 137.39L444.055 145.412" stroke="#FFDBDF" stroke-linecap="round" stroke-linejoin="round"/>
<path d="M478.597 150.379L443.65 158.5" stroke="#FFDBDF" stroke-linecap="round" stroke-linejoin="round"/>
<path d="M478.596 163.368L443.246 171.588" stroke="#FFDBDF" stroke-linecap="round" stroke-linejoin="round"/>
<path d="M478.598 176.367L442.844 184.665" stroke="#FFDBDF" stroke-linecap="round" stroke-linejoin="round"/>
<path d="M478.597 189.356L442.449 197.753" stroke="#FFDBDF" stroke-linecap="round" stroke-linejoin="round"/>
<path d="M478.597 202.346L442.045 210.831" stroke="#FFDBDF" stroke-linecap="round" stroke-linejoin="round"/>
<path d="M478.597 215.335L441.641 223.918" stroke="#FFDBDF" stroke-linecap="round" stroke-linejoin="round"/>
<path d="M478.596 228.324L441.236 237.006" stroke="#FFDBDF" stroke-linecap="round" stroke-linejoin="round"/>
<path d="M478.596 241.313L440.832 250.084" stroke="#FFDBDF" stroke-linecap="round" stroke-linejoin="round"/>
<path d="M478.598 254.302L440.43 263.172" stroke="#FFDBDF" stroke-linecap="round" stroke-linejoin="round"/>
<path d="M478.597 267.291L440.025 276.259" stroke="#FFDBDF" stroke-linecap="round" stroke-linejoin="round"/>
<path d="M478.597 280.29L439.621 289.337" stroke="#FFDBDF" stroke-linecap="round" stroke-linejoin="round"/>
<path d="M478.596 293.279L439.217 302.425" stroke="#FFDBDF" stroke-linecap="round" stroke-linejoin="round"/>
<path d="M478.596 306.268L438.812 315.502" stroke="#FFDBDF" stroke-linecap="round" stroke-linejoin="round"/>
<path d="M478.223 8.40585H484.893" stroke="#FFDBDF" stroke-linecap="round" stroke-linejoin="round"/>
<path d="M481.621 15.5213H495.729" stroke="#FFDBDF" stroke-linecap="round" stroke-linejoin="round"/>
<path d="M485.031 22.6465H506.568" stroke="#FFDBDF" stroke-linecap="round" stroke-linejoin="round"/>
<path d="M488.439 29.7718H501.415" stroke="#FFDBDF" stroke-linecap="round" stroke-linejoin="round"/>
<path d="M509.642 24.6669L475.159 2L461.365 21.7103L445.927 84.7833L438.705 319.336H445.602V339.046H478.607H505.701H534.273V327.22L546.588 191.712L509.642 24.6669Z" stroke="#FFDBDF" stroke-width="3" stroke-linecap="round" stroke-linejoin="round"/>
<path d="M470.773 90.7753L483.956 32.4524" stroke="#FFDBDF" stroke-linecap="round" stroke-linejoin="round"/>
<path d="M462.006 88.6564L475.612 28.4808" stroke="#FFDBDF" stroke-linecap="round" stroke-linejoin="round"/>
<path d="M453.236 86.5474L467.266 24.519" stroke="#FFDBDF" stroke-linecap="round" stroke-linejoin="round"/>
<path d="M451.838 325.249V331.162" stroke="#FFDBDF" stroke-linecap="round" stroke-linejoin="round"/>
<path d="M456.764 325.249V331.162" stroke="#FFDBDF" stroke-linecap="round" stroke-linejoin="round"/>
<path d="M461.691 325.249V331.162" stroke="#FFDBDF" stroke-linecap="round" stroke-linejoin="round"/>
<path d="M466.617 325.249V331.162" stroke="#FFDBDF" stroke-linecap="round" stroke-linejoin="round"/>
<path d="M471.543 325.249V331.162" stroke="#FFDBDF" stroke-linecap="round" stroke-linejoin="round"/>
<path d="M510.125 331.813V334.444" stroke="#FFDBDF" stroke-linecap="round" stroke-linejoin="round"/>
<path d="M515.051 331.813V334.444" stroke="#FFDBDF" stroke-linecap="round" stroke-linejoin="round"/>
<path d="M519.977 331.813V334.444" stroke="#FFDBDF" stroke-linecap="round" stroke-linejoin="round"/>
<path d="M524.902 331.813V334.444" stroke="#FFDBDF" stroke-linecap="round" stroke-linejoin="round"/>
<path d="M529.83 331.813V334.444" stroke="#FFDBDF" stroke-linecap="round" stroke-linejoin="round"/>
<path d="M498.873 31.3486L532.282 182.389" stroke="#FFDBDF" stroke-linecap="round" stroke-linejoin="round"/>
<path d="M491.475 53.2271L517.997 173.145" stroke="#FFDBDF" stroke-linecap="round" stroke-linejoin="round"/>
<path d="M491.385 108.189L503.671 163.733" stroke="#FFDBDF" stroke-linecap="round" stroke-linejoin="round"/>
<path d="M126.613 179.137L131.391 176.229L134.288 160.018C134.288 160.018 133.943 157.288 130.445 154.213C129.366 153.33 128.472 152.242 127.815 151.013C127.157 149.783 126.749 148.436 126.613 147.048C126.331 149.851 124.949 152.428 122.77 154.213C119.273 157.288 118.928 160.018 118.928 160.018L121.834 176.229L126.613 179.137Z" stroke="#FFDBDF" stroke-miterlimit="10"/>
<path d="M153.784 179.137L158.563 176.229L161.459 160.018C161.459 160.018 161.124 157.288 157.627 154.213C156.546 153.331 155.65 152.244 154.99 151.014C154.331 149.785 153.921 148.437 153.784 147.048C153.503 149.851 152.121 152.428 149.942 154.213C146.444 157.288 146.109 160.018 146.109 160.018L149.006 176.229L153.784 179.137Z" stroke="#FFDBDF" stroke-miterlimit="10"/>
<path d="M140.129 339.046H149.312L143.588 294.757H140.129H136.681L130.957 339.046H140.129Z" fill="#FFDBDF"/>
<path d="M126.613 147.048C126.331 149.851 124.949 152.428 122.77 154.213C119.273 157.288 118.928 160.018 118.928 160.018L121.834 176.229L126.613 179.137" fill="white"/>
<path d="M126.613 147.048C126.331 149.851 124.949 152.428 122.77 154.213C119.273 157.288 118.928 160.018 118.928 160.018L121.834 176.229L126.613 179.137" stroke="#FFDBDF" stroke-width="3" stroke-linecap="round" stroke-linejoin="round"/>
<path d="M122.258 179.137H140.258" stroke="#FFDBDF" stroke-width="3" stroke-linecap="round" stroke-linejoin="round"/>
<path d="M126.613 147.048C126.749 148.436 127.158 149.783 127.815 151.013C128.473 152.242 129.367 153.33 130.446 154.213C133.944 157.288 134.288 160.018 134.288 160.018L131.392 176.229L126.613 179.137" fill="white"/>
<path d="M126.613 147.048C126.749 148.436 127.158 149.783 127.815 151.013C128.473 152.242 129.367 153.33 130.446 154.213C133.944 157.288 134.288 160.018 134.288 160.018L131.392 176.229L126.613 179.137" stroke="#FFDBDF" stroke-width="3" stroke-linecap="round" stroke-linejoin="round"/>
<path d="M153.785 147.048C153.922 148.437 154.332 149.785 154.991 151.014C155.651 152.244 156.547 153.331 157.627 154.213C161.125 157.288 161.46 160.018 161.46 160.018L158.563 176.229L153.785 179.137" fill="white"/>
<path d="M153.785 147.048C153.922 148.437 154.332 149.785 154.991 151.014C155.651 152.244 156.547 153.331 157.627 154.213C161.125 157.288 161.46 160.018 161.46 160.018L158.563 176.229L153.785 179.137" stroke="#FFDBDF" stroke-width="3" stroke-linecap="round" stroke-linejoin="round"/>
<path d="M158.131 179.137H140.141" stroke="#FFDBDF" stroke-width="3" stroke-linecap="round" stroke-linejoin="round"/>
<path d="M153.784 147.048C153.503 149.851 152.121 152.428 149.942 154.213C146.444 157.288 146.109 160.018 146.109 160.018L149.006 176.229L153.784 179.137" fill="white"/>
<path d="M153.784 147.048C153.503 149.851 152.121 152.428 149.942 154.213C146.444 157.288 146.109 160.018 146.109 160.018L149.006 176.229L153.784 179.137" stroke="#FFDBDF" stroke-width="3" stroke-linecap="round" stroke-linejoin="round"/>
<path d="M140.141 169.745V294.757" stroke="#FFDBDF" stroke-width="3" stroke-linecap="round" stroke-linejoin="round"/>
<path d="M140.129 294.757H136.681L130.957 339.046H140.129" stroke="#FFDBDF" stroke-width="3" stroke-linecap="round" stroke-linejoin="round"/>
<path d="M137.627 241.599H142.652" stroke="#FFDBDF" stroke-width="3" stroke-linecap="round" stroke-linejoin="round"/>
<path d="M137.627 245.945H142.652" stroke="#FFDBDF" stroke-width="3" stroke-linecap="round" stroke-linejoin="round"/>
<path d="M137.627 250.301H142.652" stroke="#FFDBDF" stroke-width="3" stroke-linecap="round" stroke-linejoin="round"/>
<path d="M140.129 294.757H143.587L149.311 339.046H140.129" stroke="#FFDBDF" stroke-width="3" stroke-linecap="round" stroke-linejoin="round"/>
<path d="M131.922 331.625H148.405" stroke="#FFDBDF" stroke-linecap="round" stroke-linejoin="round"/>
<path d="M138.662 311.314L137.559 327.693" stroke="#FFDBDF" stroke-linecap="round" stroke-linejoin="round"/>
<path d="M141.656 311.314L142.769 327.693" stroke="#FFDBDF" stroke-linecap="round" stroke-linejoin="round"/>
<path d="M135.135 306.712H145.135" stroke="#FFDBDF" stroke-linecap="round" stroke-linejoin="round"/>
<path d="M118.928 160.018H134.288" stroke="#FFDBDF" stroke-linecap="round" stroke-linejoin="round"/>
<path d="M146.109 160.018H161.459" stroke="#FFDBDF" stroke-linecap="round" stroke-linejoin="round"/>
<path d="M123.707 160.018L126.614 179.137" stroke="#FFDBDF" stroke-linecap="round" stroke-linejoin="round"/>
<path d="M129.51 160.018L126.613 179.137" stroke="#FFDBDF" stroke-linecap="round" stroke-linejoin="round"/>
<path d="M150.879 160.018L153.786 179.137" stroke="#FFDBDF" stroke-linecap="round" stroke-linejoin="round"/>
<path d="M156.682 160.018L153.785 179.137" stroke="#FFDBDF" stroke-linecap="round" stroke-linejoin="round"/>
<path d="M123.627 184.508C124.218 182.537 126.307 180.674 130.445 180.674C134.583 180.674 140.14 185.789 140.14 193.643" stroke="#FFDBDF" stroke-linecap="round" stroke-linejoin="round"/>
<path d="M156.653 184.508C156.062 182.537 153.973 180.674 149.835 180.674C145.697 180.674 140.15 185.789 140.15 193.643" stroke="#FFDBDF" stroke-linecap="round" stroke-linejoin="round"/>
<path d="M435.276 279.787H412.537V262.048L407.887 230.512V178.072L411.089 173.637V170.188H407.887V146.743L401.483 117.177L395.079 146.743V170.149H391.877V173.598L395.079 178.033V230.512L392.202 249.907H390.399L371.758 242.574L364.33 245.748V234.621L350.842 230.512L346.684 231.734V212.447L336.911 208.712C336.911 208.712 328.428 199.754 312.043 199.754L307.531 195.486L302.27 184.813H298.585C298.585 184.813 285.669 157.051 246.762 151.798C207.865 157.051 194.948 184.813 194.948 184.813H191.263L186.002 195.486L181.49 199.754C165.105 199.754 156.623 208.712 156.623 208.712L146.849 212.447V231.773L142.691 230.551L129.233 234.621V245.787L121.804 242.614L103.164 249.946H101.361L98.5234 230.512V178.072L101.725 173.637V170.188H98.5234V146.743L92.1194 117.177L85.7154 146.743V170.149H82.5134V173.598L85.7154 178.033V230.512L81.0355 262.048V279.787H58.2569L37.7246 286.854V339.086H455.809V286.854L435.276 279.787Z" fill="white" stroke="#FFDBDF" stroke-miterlimit="10"/>
<path d="M85.6758 178.072H92.0798" stroke="#FFDBDF" stroke-linecap="round" stroke-linejoin="round"/>
<path d="M92.0798 170.188H85.6758" stroke="#FFDBDF" stroke-linecap="round" stroke-linejoin="round"/>
<path d="M83.7051 230.551H92.0795" stroke="#FFDBDF" stroke-linecap="round" stroke-linejoin="round"/>
<path d="M92.0801 111.796V106.869" stroke="#FFDBDF" stroke-linecap="round" stroke-linejoin="round"/>
<path d="M85.6758 146.782H92.0798" stroke="#FFDBDF" stroke-linecap="round" stroke-linejoin="round"/>
<path d="M89.8633 146.782L92.0801 117.217" stroke="#FFDBDF" stroke-linecap="round" stroke-linejoin="round"/>
<path d="M98.4841 178.072H92.0801" stroke="#FFDBDF" stroke-linecap="round" stroke-linejoin="round"/>
<path d="M92.0801 170.188H98.4841" stroke="#FFDBDF" stroke-linecap="round" stroke-linejoin="round"/>
<path d="M100.455 230.551H92.0801" stroke="#FFDBDF" stroke-linecap="round" stroke-linejoin="round"/>
<path d="M98.4841 146.782H92.0801" stroke="#FFDBDF" stroke-linecap="round" stroke-linejoin="round"/>
<path d="M94.2969 146.782L92.0801 117.217" stroke="#FFDBDF" stroke-linecap="round" stroke-linejoin="round"/>
<path d="M103.164 262.088V271.716" stroke="#FFDBDF" stroke-linecap="round" stroke-linejoin="round"/>
<path d="M80.9961 262.088H92.08" stroke="#FFDBDF" stroke-linecap="round" stroke-linejoin="round"/>
<path d="M92.0801 262.088H103.164L121.805 254.755L136.583 261.063" stroke="#FFDBDF" stroke-linecap="round" stroke-linejoin="round"/>
<path d="M152.18 284.843V289.603H136.583L152.18 284.843ZM152.18 284.843V262.994L140.189 259.87L96.2676 274.328V320.814H113.095L113.411 268.69" stroke="#FFDBDF" stroke-linecap="round" stroke-linejoin="round"/>
<path d="M147.746 289.603V308.328L157.431 313.916H133.293V308.328" stroke="#FFDBDF" stroke-linecap="round" stroke-linejoin="round"/>
<path d="M147.746 308.328H133.293" stroke="#FFDBDF" stroke-linecap="round" stroke-linejoin="round"/>
<path d="M136.582 289.603V308.328" stroke="#FFDBDF" stroke-linecap="round" stroke-linejoin="round"/>
<path d="M136.583 304.386H113.135" stroke="#FFDBDF" stroke-linecap="round" stroke-linejoin="round"/>
<path d="M113.283 290.342H96.2676L104.77 285.829L113.283 290.342Z" stroke="#FFDBDF" stroke-linecap="round" stroke-linejoin="round"/>
<path d="M113.283 304.386H96.2676L104.77 299.872L113.283 304.386Z" stroke="#FFDBDF" stroke-linecap="round" stroke-linejoin="round"/>
<path d="M119.154 295.191C119.215 293.72 119.843 292.329 120.905 291.31C121.967 290.291 123.382 289.722 124.854 289.722C126.326 289.722 127.741 290.291 128.803 291.31C129.865 292.329 130.492 293.72 130.553 295.191V304.425H119.154V295.191Z" stroke="#FFDBDF" stroke-linecap="round" stroke-linejoin="round"/>
<path d="M167.598 305.145C167.649 304.086 168.106 303.087 168.874 302.356C169.642 301.625 170.661 301.217 171.721 301.217C172.781 301.217 173.8 301.625 174.568 302.356C175.335 303.087 175.792 304.086 175.844 305.145V313.916H167.598V305.145Z" stroke="#FFDBDF" stroke-linecap="round" stroke-linejoin="round"/>
<path d="M167.105 257.022C167.105 256.421 167.344 255.844 167.769 255.419C168.194 254.994 168.771 254.755 169.372 254.755C169.973 254.755 170.549 254.994 170.974 255.419C171.399 255.844 171.638 256.421 171.638 257.022V265.99H167.105V257.022Z" stroke="#FFDBDF" stroke-linecap="round" stroke-linejoin="round"/>
<path d="M158.445 260.974C158.445 260.373 158.684 259.796 159.109 259.371C159.534 258.946 160.11 258.707 160.711 258.707C161.312 258.707 161.889 258.946 162.314 259.371C162.739 259.796 162.977 260.373 162.977 260.974V265.99H158.445V260.974Z" stroke="#FFDBDF" stroke-linecap="round" stroke-linejoin="round"/>
<path d="M135.43 242.87C135.43 242.572 135.488 242.278 135.602 242.003C135.716 241.727 135.883 241.478 136.093 241.267C136.304 241.057 136.554 240.89 136.829 240.776C137.104 240.662 137.398 240.603 137.696 240.603C137.993 240.603 138.288 240.662 138.563 240.776C138.838 240.89 139.088 241.057 139.298 241.267C139.508 241.478 139.675 241.727 139.789 242.003C139.903 242.278 139.962 242.572 139.962 242.87V247.935H135.43V242.87Z" stroke="#FFDBDF" stroke-linecap="round" stroke-linejoin="round"/>
<path d="M175.756 260.974C175.756 260.373 175.995 259.796 176.42 259.371C176.844 258.946 177.421 258.707 178.022 258.707C178.623 258.707 179.199 258.946 179.624 259.371C180.049 259.796 180.288 260.373 180.288 260.974V265.99H175.756V260.974Z" stroke="#FFDBDF" stroke-linecap="round" stroke-linejoin="round"/>
<path d="M244.506 223.238C244.506 222.941 244.564 222.646 244.678 222.371C244.792 222.096 244.959 221.846 245.17 221.636C245.38 221.425 245.63 221.258 245.905 221.144C246.18 221.03 246.474 220.972 246.772 220.972C247.069 220.972 247.364 221.03 247.639 221.144C247.914 221.258 248.164 221.425 248.374 221.636C248.585 221.846 248.752 222.096 248.865 222.371C248.979 222.646 249.038 222.941 249.038 223.238V231.261H244.506V223.238Z" stroke="#FFDBDF" stroke-linecap="round" stroke-linejoin="round"/>
<path d="M244.506 190.421C244.506 190.123 244.564 189.828 244.678 189.553C244.792 189.278 244.959 189.028 245.17 188.818C245.38 188.608 245.63 188.441 245.905 188.327C246.18 188.213 246.474 188.154 246.772 188.154C247.069 188.154 247.364 188.213 247.639 188.327C247.914 188.441 248.164 188.608 248.374 188.818C248.585 189.028 248.752 189.278 248.865 189.553C248.979 189.828 249.038 190.123 249.038 190.421V195.486H244.506V190.421Z" stroke="#FFDBDF" stroke-linecap="round" stroke-linejoin="round"/>
<path d="M235.471 190.421C235.471 189.82 235.71 189.243 236.134 188.818C236.559 188.393 237.136 188.154 237.737 188.154C238.338 188.154 238.914 188.393 239.339 188.818C239.764 189.243 240.003 189.82 240.003 190.421V195.486H235.471V190.421Z" stroke="#FFDBDF" stroke-linecap="round" stroke-linejoin="round"/>
<path d="M226.455 190.421C226.455 189.82 226.694 189.243 227.119 188.818C227.544 188.393 228.12 188.154 228.721 188.154C229.322 188.154 229.899 188.393 230.324 188.818C230.749 189.243 230.987 189.82 230.987 190.421V195.486H226.455V190.421Z" stroke="#FFDBDF" stroke-linecap="round" stroke-linejoin="round"/>
<path d="M217.432 190.421C217.432 190.123 217.49 189.828 217.604 189.553C217.718 189.278 217.885 189.028 218.095 188.818C218.306 188.608 218.556 188.441 218.831 188.327C219.105 188.213 219.4 188.154 219.698 188.154C219.995 188.154 220.29 188.213 220.565 188.327C220.84 188.441 221.09 188.608 221.3 188.818C221.51 189.028 221.677 189.278 221.791 189.553C221.905 189.828 221.964 190.123 221.964 190.421V195.486H217.432V190.421Z" stroke="#FFDBDF" stroke-linecap="round" stroke-linejoin="round"/>
<path d="M208.406 190.421C208.406 189.82 208.645 189.243 209.07 188.818C209.495 188.393 210.071 188.154 210.672 188.154C211.273 188.154 211.85 188.393 212.275 188.818C212.7 189.243 212.938 189.82 212.938 190.421V195.486H208.406V190.421Z" stroke="#FFDBDF" stroke-linecap="round" stroke-linejoin="round"/>
<path d="M199.381 190.421C199.381 189.82 199.62 189.243 200.045 188.818C200.47 188.393 201.046 188.154 201.647 188.154C202.248 188.154 202.824 188.393 203.249 188.818C203.674 189.243 203.913 189.82 203.913 190.421V195.486H199.381V190.421Z" stroke="#FFDBDF" stroke-linecap="round" stroke-linejoin="round"/>
<path d="M178.377 218.685C178.377 218.084 178.616 217.508 179.041 217.083C179.466 216.658 180.042 216.419 180.643 216.419C181.244 216.419 181.82 216.658 182.245 217.083C182.67 217.508 182.909 218.084 182.909 218.685V223.751H178.377V218.685Z" stroke="#FFDBDF" stroke-linecap="round" stroke-linejoin="round"/>
<path d="M169.352 218.685C169.352 218.084 169.59 217.508 170.015 217.083C170.44 216.658 171.017 216.419 171.617 216.419C172.218 216.419 172.795 216.658 173.22 217.083C173.645 217.508 173.884 218.084 173.884 218.685V223.751H169.352V218.685Z" stroke="#FFDBDF" stroke-linecap="round" stroke-linejoin="round"/>
<path d="M160.326 218.685C160.326 218.084 160.565 217.508 160.99 217.083C161.415 216.658 161.991 216.419 162.592 216.419C163.193 216.419 163.77 216.658 164.195 217.083C164.62 217.508 164.858 218.084 164.858 218.685V223.751H160.326V218.685Z" stroke="#FFDBDF" stroke-linecap="round" stroke-linejoin="round"/>
<path d="M151.303 218.685C151.303 218.084 151.542 217.508 151.966 217.083C152.391 216.658 152.968 216.419 153.569 216.419C154.17 216.419 154.746 216.658 155.171 217.083C155.596 217.508 155.835 218.084 155.835 218.685V223.751H151.303V218.685Z" stroke="#FFDBDF" stroke-linecap="round" stroke-linejoin="round"/>
<path d="M244.506 237.509C244.506 237.211 244.564 236.916 244.678 236.641C244.792 236.366 244.959 236.116 245.17 235.906C245.38 235.695 245.63 235.528 245.905 235.415C246.18 235.301 246.474 235.242 246.772 235.242C247.069 235.242 247.364 235.301 247.639 235.415C247.914 235.528 248.164 235.695 248.374 235.906C248.585 236.116 248.752 236.366 248.865 236.641C248.979 236.916 249.038 237.211 249.038 237.509V240.603H244.506V237.509Z" stroke="#FFDBDF" stroke-linecap="round" stroke-linejoin="round"/>
<path d="M232.516 227.181C232.516 226.579 232.754 226.003 233.179 225.578C233.604 225.153 234.181 224.914 234.782 224.914C235.383 224.914 235.959 225.153 236.384 225.578C236.809 226.003 237.048 226.579 237.048 227.181V231.261H232.516V227.181Z" stroke="#FFDBDF" stroke-linecap="round" stroke-linejoin="round"/>
<path d="M232.516 237.509C232.516 236.908 232.754 236.331 233.179 235.906C233.604 235.481 234.181 235.242 234.782 235.242C235.383 235.242 235.959 235.481 236.384 235.906C236.809 236.331 237.048 236.908 237.048 237.509V240.603H232.516V237.509Z" stroke="#FFDBDF" stroke-linecap="round" stroke-linejoin="round"/>
<path d="M220.604 237.509C220.604 236.908 220.842 236.331 221.267 235.906C221.692 235.481 222.269 235.242 222.87 235.242C223.471 235.242 224.047 235.481 224.472 235.906C224.897 236.331 225.136 236.908 225.136 237.509V240.603H220.604V237.509Z" stroke="#FFDBDF" stroke-linecap="round" stroke-linejoin="round"/>
<path d="M200.988 203.903C201.706 203.901 202.417 204.042 203.08 204.315C203.743 204.589 204.346 204.991 204.854 205.498C205.362 206.005 205.765 206.608 206.04 207.271C206.315 207.934 206.456 208.645 206.456 209.362V217.7H216.013V244.013H246.733" stroke="#FFDBDF" stroke-linecap="round" stroke-linejoin="round"/>
<path d="M216.053 267.794C216.053 265.216 217.076 262.745 218.898 260.923C220.72 259.1 223.191 258.076 225.767 258.076C228.344 258.076 230.814 259.1 232.636 260.923C234.458 262.745 235.481 265.216 235.481 267.794" stroke="#FFDBDF" stroke-linecap="round" stroke-linejoin="round"/>
<path d="M225.137 309.106C225.137 308.505 225.375 307.929 225.8 307.504C226.225 307.079 226.802 306.84 227.403 306.84C228.004 306.84 228.58 307.079 229.005 307.504C229.43 307.929 229.669 308.505 229.669 309.106V314.162H225.137V309.106Z" stroke="#FFDBDF" stroke-linecap="round" stroke-linejoin="round"/>
<path d="M234.82 309.106C234.82 308.505 235.059 307.929 235.484 307.504C235.909 307.079 236.485 306.84 237.086 306.84C237.687 306.84 238.264 307.079 238.689 307.504C239.114 307.929 239.352 308.505 239.352 309.106V314.162H234.82V309.106Z" stroke="#FFDBDF" stroke-linecap="round" stroke-linejoin="round"/>
<path d="M244.506 309.106C244.506 308.809 244.564 308.514 244.678 308.239C244.792 307.964 244.959 307.714 245.17 307.504C245.38 307.293 245.63 307.126 245.905 307.012C246.18 306.898 246.474 306.84 246.772 306.84C247.069 306.84 247.364 306.898 247.639 307.012C247.914 307.126 248.164 307.293 248.374 307.504C248.585 307.714 248.752 307.964 248.865 308.239C248.979 308.514 249.038 308.809 249.038 309.106V314.162H244.506V309.106Z" stroke="#FFDBDF" stroke-linecap="round" stroke-linejoin="round"/>
<path d="M225.137 319.385C225.137 318.784 225.375 318.208 225.8 317.783C226.225 317.357 226.802 317.119 227.403 317.119C228.004 317.119 228.58 317.357 229.005 317.783C229.43 318.208 229.669 318.784 229.669 319.385V324.451H225.137V319.385Z" stroke="#FFDBDF" stroke-linecap="round" stroke-linejoin="round"/>
<path d="M234.82 319.385C234.82 318.784 235.059 318.208 235.484 317.783C235.909 317.357 236.485 317.119 237.086 317.119C237.687 317.119 238.264 317.357 238.689 317.783C239.114 318.208 239.352 318.784 239.352 319.385V324.451H234.82V319.385Z" stroke="#FFDBDF" stroke-linecap="round" stroke-linejoin="round"/>
<path d="M244.506 319.385C244.506 319.088 244.564 318.793 244.678 318.518C244.792 318.243 244.959 317.993 245.17 317.783C245.38 317.572 245.63 317.405 245.905 317.291C246.18 317.177 246.474 317.119 246.772 317.119C247.069 317.119 247.364 317.177 247.639 317.291C247.914 317.405 248.164 317.572 248.374 317.783C248.585 317.993 248.752 318.243 248.865 318.518C248.979 318.793 249.038 319.088 249.038 319.385V324.451H244.506V319.385Z" stroke="#FFDBDF" stroke-linecap="round" stroke-linejoin="round"/>
<path d="M225.137 329.674C225.137 329.073 225.375 328.496 225.8 328.071C226.225 327.646 226.802 327.407 227.403 327.407C228.004 327.407 228.58 327.646 229.005 328.071C229.43 328.496 229.669 329.073 229.669 329.674V334.74H225.137V329.674Z" stroke="#FFDBDF" stroke-linecap="round" stroke-linejoin="round"/>
<path d="M216.053 309.106C216.053 308.505 216.291 307.929 216.716 307.504C217.141 307.079 217.718 306.84 218.319 306.84C218.92 306.84 219.496 307.079 219.921 307.504C220.346 307.929 220.585 308.505 220.585 309.106V314.162H216.053V309.106Z" stroke="#FFDBDF" stroke-linecap="round" stroke-linejoin="round"/>
<path d="M216.053 319.385C216.053 318.784 216.291 318.208 216.716 317.783C217.141 317.357 217.718 317.119 218.319 317.119C218.92 317.119 219.496 317.357 219.921 317.783C220.346 318.208 220.585 318.784 220.585 319.385V324.451H216.053V319.385Z" stroke="#FFDBDF" stroke-linecap="round" stroke-linejoin="round"/>
<path d="M216.053 329.674C216.053 329.073 216.291 328.496 216.716 328.071C217.141 327.646 217.718 327.407 218.319 327.407C218.92 327.407 219.496 327.646 219.921 328.071C220.346 328.496 220.585 329.073 220.585 329.674V334.74H216.053V329.674Z" stroke="#FFDBDF" stroke-linecap="round" stroke-linejoin="round"/>
<path d="M234.82 329.674C234.82 329.073 235.059 328.496 235.484 328.071C235.909 327.646 236.485 327.407 237.086 327.407C237.687 327.407 238.264 327.646 238.689 328.071C239.114 328.496 239.352 329.073 239.352 329.674V334.74H234.82V329.674Z" stroke="#FFDBDF" stroke-linecap="round" stroke-linejoin="round"/>
<path d="M244.506 329.674C244.506 329.376 244.564 329.082 244.678 328.807C244.792 328.532 244.959 328.282 245.17 328.071C245.38 327.861 245.63 327.694 245.905 327.58C246.18 327.466 246.474 327.407 246.772 327.407C247.069 327.407 247.364 327.466 247.639 327.58C247.914 327.694 248.164 327.861 248.374 328.071C248.585 328.282 248.752 328.532 248.865 328.807C248.979 329.082 249.038 329.376 249.038 329.674V334.74H244.506V329.674Z" stroke="#FFDBDF" stroke-linecap="round" stroke-linejoin="round"/>
<path d="M121.795 278.595H119.154V283.276H121.795V278.595Z" stroke="#FFDBDF" stroke-linecap="round" stroke-linejoin="round"/>
<path d="M130.553 278.595H127.912V283.276H130.553V278.595Z" stroke="#FFDBDF" stroke-linecap="round" stroke-linejoin="round"/>
<path d="M202.348 222.292H199.707V226.974H202.348V222.292Z" stroke="#FFDBDF" stroke-linecap="round" stroke-linejoin="round"/>
<path d="M202.348 235.705H199.707V240.386H202.348V235.705Z" stroke="#FFDBDF" stroke-linecap="round" stroke-linejoin="round"/>
<path d="M51.0349 292.254H48.3945V296.935H51.0349V292.254Z" stroke="#FFDBDF" stroke-linecap="round" stroke-linejoin="round"/>
<path d="M174.12 326.363H169.312V333.912H174.12V326.363Z" stroke="#FFDBDF" stroke-linecap="round" stroke-linejoin="round"/>
<path d="M163.678 313.916H171.717" stroke="#FFDBDF" stroke-linecap="round" stroke-linejoin="round"/>
<path d="M171.824 313.916H179.864" stroke="#FFDBDF" stroke-linecap="round" stroke-linejoin="round"/>
<path d="M157.43 339.046H171.715" stroke="#FFDBDF" stroke-linecap="round" stroke-linejoin="round"/>
<path d="M157.43 289.603H171.715" stroke="#FFDBDF" stroke-linecap="round" stroke-linejoin="round"/>
<path d="M152.18 289.603H157.431V339.046H133.293V313.916H113.135" stroke="#FFDBDF" stroke-linecap="round" stroke-linejoin="round"/>
<path d="M195.697 289.603V308.328L186.002 313.916H210.14V308.328" stroke="#FFDBDF" stroke-linecap="round" stroke-linejoin="round"/>
<path d="M186.003 339.046H171.717" stroke="#FFDBDF" stroke-linecap="round" stroke-linejoin="round"/>
<path d="M186.003 289.603H171.717" stroke="#FFDBDF" stroke-linecap="round" stroke-linejoin="round"/>
<path d="M191.263 289.603H186.002V339.046H210.14V313.916" stroke="#FFDBDF" stroke-linecap="round" stroke-linejoin="round"/>
<path d="M191.264 289.603H216.052V296.994" stroke="#FFDBDF" stroke-linecap="round" stroke-linejoin="round"/>
<path d="M171.717 279.787C157.431 279.787 152.18 289.642 152.18 289.642" stroke="#FFDBDF" stroke-linecap="round" stroke-linejoin="round"/>
<path d="M171.717 279.787C186.003 279.787 191.264 289.642 191.264 289.642" stroke="#FFDBDF" stroke-linecap="round" stroke-linejoin="round"/>
<path d="M171.717 243.974C157.431 243.974 152.18 253.829 152.18 253.829L140.189 259.87" stroke="#FFDBDF" stroke-linecap="round" stroke-linejoin="round"/>
<path d="M171.717 243.974C186.003 243.974 191.264 253.829 191.264 253.829" stroke="#FFDBDF" stroke-linecap="round" stroke-linejoin="round"/>
<path d="M166.397 227.979C152.111 227.979 146.85 237.834 146.85 237.834" stroke="#FFDBDF" stroke-linecap="round" stroke-linejoin="round"/>
<path d="M166.396 227.979C180.682 227.979 185.934 237.834 185.934 237.834" stroke="#FFDBDF" stroke-linecap="round" stroke-linejoin="round"/>
<path d="M186.002 284.045V253.829H216.052V289.603" stroke="#FFDBDF" stroke-linecap="round" stroke-linejoin="round"/>
<path d="M186.002 266.03H216.052" stroke="#FFDBDF" stroke-linecap="round" stroke-linejoin="round"/>
<path d="M96.2676 320.814V339.046H133.293" stroke="#FFDBDF" stroke-linecap="round" stroke-linejoin="round"/>
<path d="M113.096 320.814V339.046" stroke="#FFDBDF" stroke-linecap="round" stroke-linejoin="round"/>
<path d="M113.135 310.506L120.593 304.386" stroke="#FFDBDF" stroke-linecap="round" stroke-linejoin="round"/>
<path d="M117.617 313.916L129.233 304.386" stroke="#FFDBDF" stroke-linecap="round" stroke-linejoin="round"/>
<path d="M186.002 259.929L193.45 253.829" stroke="#FFDBDF" stroke-linecap="round" stroke-linejoin="round"/>
<path d="M186.752 266.03L201.639 253.829" stroke="#FFDBDF" stroke-linecap="round" stroke-linejoin="round"/>
<path d="M194.949 266.03L209.836 253.829" stroke="#FFDBDF" stroke-linecap="round" stroke-linejoin="round"/>
<path d="M203.145 266.03L216.051 255.445" stroke="#FFDBDF" stroke-linecap="round" stroke-linejoin="round"/>
<path d="M211.332 266.03L216.051 262.166" stroke="#FFDBDF" stroke-linecap="round" stroke-linejoin="round"/>
<path d="M126.258 313.916L136.583 305.45" stroke="#FFDBDF" stroke-linecap="round" stroke-linejoin="round"/>
<path d="M96.2675 283.276H80.9964L61.2129 290.342H96.2675" stroke="#FFDBDF" stroke-linecap="round" stroke-linejoin="round"/>
<path d="M61.2129 290.342V339.046H96.2675" stroke="#FFDBDF" stroke-linecap="round" stroke-linejoin="round"/>
<path d="M61.2125 299.872L49.7148 304.386H61.2125" stroke="#FFDBDF" stroke-linecap="round" stroke-linejoin="round"/>
<path d="M49.7148 304.386V339.046H61.2125" stroke="#FFDBDF" stroke-linecap="round" stroke-linejoin="round"/>
<path d="M37.7246 286.814H71.1044" stroke="#FFDBDF" stroke-linecap="round" stroke-linejoin="round"/>
<path d="M90.4355 290.342V339.046" stroke="#FFDBDF" stroke-linecap="round" stroke-linejoin="round"/>
<path d="M246.762 275.481C238.555 275.481 225.412 280.94 216.052 296.994L210.141 301.025H246.762" stroke="#FFDBDF" stroke-linecap="round" stroke-linejoin="round"/>
<path d="M210.141 301.025V308.328H195.697" stroke="#FFDBDF" stroke-linecap="round" stroke-linejoin="round"/>
<path d="M216.053 296.994H246.762" stroke="#FFDBDF" stroke-linecap="round" stroke-linejoin="round"/>
<path d="M210.141 339.046H246.762" stroke="#FFDBDF" stroke-linecap="round" stroke-linejoin="round"/>
<path d="M216.053 253.829H246.762" stroke="#FFDBDF" stroke-linecap="round" stroke-linejoin="round"/>
<path d="M222.506 288.076V258.648" stroke="#FFDBDF" stroke-linecap="round" stroke-linejoin="round"/>
<path d="M229.027 258.648V282.123" stroke="#FFDBDF" stroke-linecap="round" stroke-linejoin="round"/>
<path d="M216.053 267.794H235.481V278.25" stroke="#FFDBDF" stroke-linecap="round" stroke-linejoin="round"/>
<path d="M240.406 267.794H246.771" stroke="#FFDBDF" stroke-linecap="round" stroke-linejoin="round"/>
<path d="M200.988 203.903C199.539 203.903 198.15 204.478 197.125 205.501C196.099 206.525 195.522 207.913 195.52 209.362V217.7H185.963V248.251" stroke="#FFDBDF" stroke-linecap="round" stroke-linejoin="round"/>
<path d="M246.762 215.029C237.895 215.029 220.654 219.503 216.053 238.051" stroke="#FFDBDF" stroke-linecap="round" stroke-linejoin="round"/>
<path d="M211.332 217.66V203.922H246.761" stroke="#FFDBDF" stroke-linecap="round" stroke-linejoin="round"/>
<path d="M186.002 195.486H246.761" stroke="#FFDBDF" stroke-linecap="round" stroke-linejoin="round"/>
<path d="M246.762 199.754H181.49" stroke="#FFDBDF" stroke-linecap="round" stroke-linejoin="round"/>
<path d="M186.002 199.754V217.66" stroke="#FFDBDF" stroke-linecap="round" stroke-linejoin="round"/>
<path d="M194.949 184.813H246.763" stroke="#FFDBDF" stroke-linecap="round" stroke-linejoin="round"/>
<path d="M242.84 152.419L246.761 145.393" stroke="#FFDBDF" stroke-linecap="round" stroke-linejoin="round"/>
<path d="M246.762 145.393V131.999" stroke="#FFDBDF" stroke-linecap="round" stroke-linejoin="round"/>
<path d="M146.85 256.509V237.834H185.934" stroke="#FFDBDF" stroke-linecap="round" stroke-linejoin="round"/>
<path d="M129.232 245.787V257.929" stroke="#FFDBDF" stroke-linecap="round" stroke-linejoin="round"/>
<path d="M150.702 232.906L146.85 231.773" stroke="#FFDBDF" stroke-linecap="round" stroke-linejoin="round"/>
<path d="M146.85 212.447H185.934" stroke="#FFDBDF" stroke-linecap="round" stroke-linejoin="round"/>
<path d="M156.623 208.712H185.934" stroke="#FFDBDF" stroke-linecap="round" stroke-linejoin="round"/>
<path d="M101.361 249.946L103.164 262.088" stroke="#FFDBDF" stroke-linecap="round" stroke-linejoin="round"/>
<path d="M80.9961 283.276V279.748" stroke="#FFDBDF" stroke-linecap="round" stroke-linejoin="round"/>
<path d="M407.857 178.072H401.453" stroke="#FFDBDF" stroke-linecap="round" stroke-linejoin="round"/>
<path d="M401.453 170.188H407.857" stroke="#FFDBDF" stroke-linecap="round" stroke-linejoin="round"/>
<path d="M409.828 230.551H401.453" stroke="#FFDBDF" stroke-linecap="round" stroke-linejoin="round"/>
<path d="M401.453 111.796V106.869" stroke="#FFDBDF" stroke-linecap="round" stroke-linejoin="round"/>
<path d="M407.857 146.782H401.453" stroke="#FFDBDF" stroke-linecap="round" stroke-linejoin="round"/>
<path d="M403.67 146.782L401.453 117.217" stroke="#FFDBDF" stroke-linecap="round" stroke-linejoin="round"/>
<path d="M395.049 178.072H401.453" stroke="#FFDBDF" stroke-linecap="round" stroke-linejoin="round"/>
<path d="M401.453 170.188H395.049" stroke="#FFDBDF" stroke-linecap="round" stroke-linejoin="round"/>
<path d="M393.078 230.551H401.453" stroke="#FFDBDF" stroke-linecap="round" stroke-linejoin="round"/>
<path d="M395.049 146.782H401.453" stroke="#FFDBDF" stroke-linecap="round" stroke-linejoin="round"/>
<path d="M399.236 146.782L401.453 117.217" stroke="#FFDBDF" stroke-linecap="round" stroke-linejoin="round"/>
<path d="M390.369 262.088V271.716" stroke="#FFDBDF" stroke-linecap="round" stroke-linejoin="round"/>
<path d="M412.537 262.088H401.453" stroke="#FFDBDF" stroke-linecap="round" stroke-linejoin="round"/>
<path d="M401.454 262.088H390.37L371.73 254.755L356.951 261.063" stroke="#FFDBDF" stroke-linecap="round" stroke-linejoin="round"/>
<path d="M341.354 284.843V289.603H356.95L341.354 284.843ZM341.354 284.843V262.994L353.344 259.87L397.266 274.328V320.814H380.438L380.122 268.69" stroke="#FFDBDF" stroke-linecap="round" stroke-linejoin="round"/>
<path d="M345.788 289.603V308.328L336.104 313.916H360.242V308.328" stroke="#FFDBDF" stroke-linecap="round" stroke-linejoin="round"/>
<path d="M345.787 308.328H360.24" stroke="#FFDBDF" stroke-linecap="round" stroke-linejoin="round"/>
<path d="M356.951 289.603V308.328" stroke="#FFDBDF" stroke-linecap="round" stroke-linejoin="round"/>
<path d="M356.951 304.386H380.4" stroke="#FFDBDF" stroke-linecap="round" stroke-linejoin="round"/>
<path d="M380.25 290.342H397.265L388.762 285.829L380.25 290.342Z" stroke="#FFDBDF" stroke-linecap="round" stroke-linejoin="round"/>
<path d="M380.25 304.386H397.265L388.762 299.872L380.25 304.386Z" stroke="#FFDBDF" stroke-linecap="round" stroke-linejoin="round"/>
<path d="M374.389 295.191C374.389 293.68 373.789 292.231 372.721 291.163C371.653 290.095 370.205 289.495 368.695 289.495C367.184 289.495 365.736 290.095 364.668 291.163C363.6 292.231 363 293.68 363 295.191V304.425H374.389V295.191Z" stroke="#FFDBDF" stroke-linecap="round" stroke-linejoin="round"/>
<path d="M325.936 305.145C325.884 304.086 325.427 303.087 324.659 302.356C323.892 301.625 322.873 301.217 321.813 301.217C320.753 301.217 319.733 301.625 318.966 302.356C318.198 303.087 317.741 304.086 317.689 305.145V313.916H325.936V305.145Z" stroke="#FFDBDF" stroke-linecap="round" stroke-linejoin="round"/>
<path d="M326.428 257.022C326.428 256.421 326.19 255.844 325.765 255.419C325.34 254.994 324.764 254.755 324.163 254.755C323.562 254.755 322.985 254.994 322.56 255.419C322.135 255.844 321.896 256.421 321.896 257.022V265.99H326.428V257.022Z" stroke="#FFDBDF" stroke-linecap="round" stroke-linejoin="round"/>
<path d="M335.089 260.974C335.089 260.373 334.85 259.796 334.425 259.371C334 258.946 333.424 258.707 332.823 258.707C332.222 258.707 331.645 258.946 331.22 259.371C330.795 259.796 330.557 260.373 330.557 260.974V265.99H335.089V260.974Z" stroke="#FFDBDF" stroke-linecap="round" stroke-linejoin="round"/>
<path d="M358.102 242.87C358.102 242.269 357.864 241.692 357.439 241.267C357.014 240.842 356.437 240.603 355.836 240.603C355.235 240.603 354.659 240.842 354.234 241.267C353.809 241.692 353.57 242.269 353.57 242.87V247.935H358.102V242.87Z" stroke="#FFDBDF" stroke-linecap="round" stroke-linejoin="round"/>
<path d="M317.778 260.974C317.778 260.373 317.54 259.796 317.115 259.371C316.69 258.946 316.113 258.707 315.512 258.707C314.911 258.707 314.335 258.946 313.91 259.371C313.485 259.796 313.246 260.373 313.246 260.974V265.99H317.778V260.974Z" stroke="#FFDBDF" stroke-linecap="round" stroke-linejoin="round"/>
<path d="M258.052 190.421C258.052 189.82 257.813 189.243 257.388 188.818C256.963 188.393 256.386 188.154 255.786 188.154C255.185 188.154 254.608 188.393 254.183 188.818C253.758 189.243 253.52 189.82 253.52 190.421V195.486H258.052V190.421Z" stroke="#FFDBDF" stroke-linecap="round" stroke-linejoin="round"/>
<path d="M267.077 190.421C267.077 190.123 267.018 189.828 266.904 189.553C266.791 189.278 266.624 189.028 266.413 188.818C266.203 188.608 265.953 188.441 265.678 188.327C265.403 188.213 265.109 188.154 264.811 188.154C264.513 188.154 264.219 188.213 263.944 188.327C263.669 188.441 263.419 188.608 263.209 188.818C262.998 189.028 262.831 189.278 262.717 189.553C262.604 189.828 262.545 190.123 262.545 190.421V195.486H267.077V190.421Z" stroke="#FFDBDF" stroke-linecap="round" stroke-linejoin="round"/>
<path d="M276.102 190.421C276.102 189.82 275.864 189.243 275.439 188.818C275.014 188.393 274.437 188.154 273.836 188.154C273.235 188.154 272.659 188.393 272.234 188.818C271.809 189.243 271.57 189.82 271.57 190.421V195.486H276.102V190.421Z" stroke="#FFDBDF" stroke-linecap="round" stroke-linejoin="round"/>
<path d="M285.126 190.421C285.126 189.82 284.887 189.243 284.462 188.818C284.037 188.393 283.461 188.154 282.86 188.154C282.259 188.154 281.682 188.393 281.257 188.818C280.832 189.243 280.594 189.82 280.594 190.421V195.486H285.126V190.421Z" stroke="#FFDBDF" stroke-linecap="round" stroke-linejoin="round"/>
<path d="M294.151 190.421C294.151 189.82 293.913 189.243 293.488 188.818C293.063 188.393 292.486 188.154 291.885 188.154C291.284 188.154 290.708 188.393 290.283 188.818C289.858 189.243 289.619 189.82 289.619 190.421V195.486H294.151V190.421Z" stroke="#FFDBDF" stroke-linecap="round" stroke-linejoin="round"/>
<path d="M315.157 218.685C315.157 218.084 314.918 217.508 314.493 217.083C314.068 216.658 313.492 216.419 312.891 216.419C312.29 216.419 311.714 216.658 311.289 217.083C310.864 217.508 310.625 218.084 310.625 218.685V223.751H315.157V218.685Z" stroke="#FFDBDF" stroke-linecap="round" stroke-linejoin="round"/>
<path d="M324.141 218.685C324.141 218.084 323.903 217.508 323.478 217.083C323.053 216.658 322.476 216.419 321.875 216.419C321.274 216.419 320.698 216.658 320.273 217.083C319.848 217.508 319.609 218.084 319.609 218.685V223.751H324.141V218.685Z" stroke="#FFDBDF" stroke-linecap="round" stroke-linejoin="round"/>
<path d="M333.206 218.685C333.206 218.084 332.967 217.508 332.542 217.083C332.117 216.658 331.541 216.419 330.94 216.419C330.339 216.419 329.763 216.658 329.338 217.083C328.913 217.508 328.674 218.084 328.674 218.685V223.751H333.206V218.685Z" stroke="#FFDBDF" stroke-linecap="round" stroke-linejoin="round"/>
<path d="M342.231 218.685C342.231 218.084 341.993 217.508 341.568 217.083C341.143 216.658 340.566 216.419 339.965 216.419C339.364 216.419 338.788 216.658 338.363 217.083C337.938 217.508 337.699 218.084 337.699 218.685V223.751H342.231V218.685Z" stroke="#FFDBDF" stroke-linecap="round" stroke-linejoin="round"/>
<path d="M260.979 227.181C260.979 226.579 260.74 226.003 260.316 225.578C259.891 225.153 259.314 224.914 258.713 224.914C258.112 224.914 257.536 225.153 257.111 225.578C256.686 226.003 256.447 226.579 256.447 227.181V231.261H260.979V227.181Z" stroke="#FFDBDF" stroke-linecap="round" stroke-linejoin="round"/>
<path d="M260.979 237.509C260.979 236.908 260.74 236.331 260.316 235.906C259.891 235.481 259.314 235.242 258.713 235.242C258.112 235.242 257.536 235.481 257.111 235.906C256.686 236.331 256.447 236.908 256.447 237.509V240.603H260.979V237.509Z" stroke="#FFDBDF" stroke-linecap="round" stroke-linejoin="round"/>
<path d="M272.909 237.509C272.909 237.211 272.85 236.916 272.737 236.641C272.623 236.366 272.456 236.116 272.245 235.906C272.035 235.695 271.785 235.528 271.51 235.415C271.235 235.301 270.941 235.242 270.643 235.242C270.345 235.242 270.051 235.301 269.776 235.415C269.501 235.528 269.251 235.695 269.041 235.906C268.83 236.116 268.663 236.366 268.549 236.641C268.436 236.916 268.377 237.211 268.377 237.509V240.603H272.909V237.509Z" stroke="#FFDBDF" stroke-linecap="round" stroke-linejoin="round"/>
<path d="M292.506 203.903C291.788 203.901 291.078 204.042 290.414 204.315C289.751 204.589 289.148 204.991 288.64 205.498C288.132 206.005 287.729 206.608 287.455 207.271C287.18 207.934 287.038 208.645 287.038 209.362V217.7H277.481V244.013H246.762" stroke="#FFDBDF" stroke-linecap="round" stroke-linejoin="round"/>
<path d="M277.482 267.794C277.482 265.216 276.458 262.745 274.636 260.923C272.814 259.1 270.344 258.076 267.767 258.076C265.191 258.076 262.72 259.1 260.898 260.923C259.076 262.745 258.053 265.216 258.053 267.794" stroke="#FFDBDF" stroke-linecap="round" stroke-linejoin="round"/>
<path d="M268.397 309.106C268.397 308.505 268.159 307.929 267.734 307.504C267.309 307.079 266.732 306.84 266.131 306.84C265.53 306.84 264.954 307.079 264.529 307.504C264.104 307.929 263.865 308.505 263.865 309.106V314.162H268.397V309.106Z" stroke="#FFDBDF" stroke-linecap="round" stroke-linejoin="round"/>
<path d="M258.712 309.106C258.712 308.505 258.473 307.929 258.048 307.504C257.623 307.079 257.047 306.84 256.446 306.84C255.845 306.84 255.268 307.079 254.843 307.504C254.418 307.929 254.18 308.505 254.18 309.106V314.162H258.712V309.106Z" stroke="#FFDBDF" stroke-linecap="round" stroke-linejoin="round"/>
<path d="M268.397 319.385C268.397 318.784 268.159 318.208 267.734 317.783C267.309 317.357 266.732 317.119 266.131 317.119C265.53 317.119 264.954 317.357 264.529 317.783C264.104 318.208 263.865 318.784 263.865 319.385V324.451H268.397V319.385Z" stroke="#FFDBDF" stroke-linecap="round" stroke-linejoin="round"/>
<path d="M258.712 319.385C258.712 318.784 258.473 318.208 258.048 317.783C257.623 317.357 257.047 317.119 256.446 317.119C255.845 317.119 255.268 317.357 254.843 317.783C254.418 318.208 254.18 318.784 254.18 319.385V324.451H258.712V319.385Z" stroke="#FFDBDF" stroke-linecap="round" stroke-linejoin="round"/>
<path d="M268.397 329.674C268.397 329.073 268.159 328.496 267.734 328.071C267.309 327.646 266.732 327.407 266.131 327.407C265.53 327.407 264.954 327.646 264.529 328.071C264.104 328.496 263.865 329.073 263.865 329.674V334.74H268.397V329.674Z" stroke="#FFDBDF" stroke-linecap="round" stroke-linejoin="round"/>
<path d="M277.481 309.106C277.481 308.505 277.242 307.929 276.817 307.504C276.392 307.079 275.816 306.84 275.215 306.84C274.614 306.84 274.038 307.079 273.613 307.504C273.188 307.929 272.949 308.505 272.949 309.106V314.162H277.481V309.106Z" stroke="#FFDBDF" stroke-linecap="round" stroke-linejoin="round"/>
<path d="M277.481 319.385C277.481 318.784 277.242 318.208 276.817 317.783C276.392 317.357 275.816 317.119 275.215 317.119C274.614 317.119 274.038 317.357 273.613 317.783C273.188 318.208 272.949 318.784 272.949 319.385V324.451H277.481V319.385Z" stroke="#FFDBDF" stroke-linecap="round" stroke-linejoin="round"/>
<path d="M277.481 329.674C277.481 329.073 277.242 328.496 276.817 328.071C276.392 327.646 275.816 327.407 275.215 327.407C274.614 327.407 274.038 327.646 273.613 328.071C273.188 328.496 272.949 329.073 272.949 329.674V334.74H277.481V329.674Z" stroke="#FFDBDF" stroke-linecap="round" stroke-linejoin="round"/>
<path d="M258.712 329.674C258.712 329.073 258.473 328.496 258.048 328.071C257.623 327.646 257.047 327.407 256.446 327.407C255.845 327.407 255.268 327.646 254.843 328.071C254.418 328.496 254.18 329.073 254.18 329.674V334.74H258.712V329.674Z" stroke="#FFDBDF" stroke-linecap="round" stroke-linejoin="round"/>
<path d="M371.738 283.286H374.379V278.605H371.738V283.286Z" stroke="#FFDBDF" stroke-linecap="round" stroke-linejoin="round"/>
<path d="M362.981 283.286H365.621V278.605H362.981V283.286Z" stroke="#FFDBDF" stroke-linecap="round" stroke-linejoin="round"/>
<path d="M291.176 226.974H293.816V222.292H291.176V226.974Z" stroke="#FFDBDF" stroke-linecap="round" stroke-linejoin="round"/>
<path d="M291.176 240.386H293.816V235.705H291.176V240.386Z" stroke="#FFDBDF" stroke-linecap="round" stroke-linejoin="round"/>
<path d="M442.498 296.945H445.139V292.264H442.498V296.945Z" stroke="#FFDBDF" stroke-linecap="round" stroke-linejoin="round"/>
<path d="M319.403 333.902H324.211V326.353H319.403V333.902Z" stroke="#FFDBDF" stroke-linecap="round" stroke-linejoin="round"/>
<path d="M329.856 313.916H321.816" stroke="#FFDBDF" stroke-linecap="round" stroke-linejoin="round"/>
<path d="M321.709 313.916H313.67" stroke="#FFDBDF" stroke-linecap="round" stroke-linejoin="round"/>
<path d="M336.102 339.046H321.816" stroke="#FFDBDF" stroke-linecap="round" stroke-linejoin="round"/>
<path d="M336.102 289.603H321.816" stroke="#FFDBDF" stroke-linecap="round" stroke-linejoin="round"/>
<path d="M341.355 289.603H336.104V339.046H360.242V313.916H380.4" stroke="#FFDBDF" stroke-linecap="round" stroke-linejoin="round"/>
<path d="M297.836 289.603V308.328L307.531 313.916H283.393V308.328" stroke="#FFDBDF" stroke-linecap="round" stroke-linejoin="round"/>
<path d="M307.531 339.046H321.817" stroke="#FFDBDF" stroke-linecap="round" stroke-linejoin="round"/>
<path d="M307.531 289.603H321.817" stroke="#FFDBDF" stroke-linecap="round" stroke-linejoin="round"/>
<path d="M302.27 289.603H307.531V339.046H283.393V313.916" stroke="#FFDBDF" stroke-linecap="round" stroke-linejoin="round"/>
<path d="M302.269 289.603H277.48V296.994" stroke="#FFDBDF" stroke-linecap="round" stroke-linejoin="round"/>
<path d="M321.816 279.787C336.102 279.787 341.354 289.642 341.354 289.642" stroke="#FFDBDF" stroke-linecap="round" stroke-linejoin="round"/>
<path d="M321.817 279.787C307.531 279.787 302.27 289.642 302.27 289.642" stroke="#FFDBDF" stroke-linecap="round" stroke-linejoin="round"/>
<path d="M321.816 243.974C336.102 243.974 341.353 253.829 341.353 253.829L353.344 259.87" stroke="#FFDBDF" stroke-linecap="round" stroke-linejoin="round"/>
<path d="M321.817 243.974C307.531 243.974 302.27 253.829 302.27 253.829" stroke="#FFDBDF" stroke-linecap="round" stroke-linejoin="round"/>
<path d="M327.098 227.979C341.384 227.979 346.645 237.834 346.645 237.834" stroke="#FFDBDF" stroke-linecap="round" stroke-linejoin="round"/>
<path d="M327.098 227.979C312.812 227.979 307.561 237.834 307.561 237.834" stroke="#FFDBDF" stroke-linecap="round" stroke-linejoin="round"/>
<path d="M307.53 284.045V253.829H277.48V289.603" stroke="#FFDBDF" stroke-linecap="round" stroke-linejoin="round"/>
<path d="M307.53 266.03H277.48" stroke="#FFDBDF" stroke-linecap="round" stroke-linejoin="round"/>
<path d="M397.265 320.814V339.046H360.24" stroke="#FFDBDF" stroke-linecap="round" stroke-linejoin="round"/>
<path d="M380.438 320.814V339.046" stroke="#FFDBDF" stroke-linecap="round" stroke-linejoin="round"/>
<path d="M380.4 310.506L372.941 304.386" stroke="#FFDBDF" stroke-linecap="round" stroke-linejoin="round"/>
<path d="M375.917 313.916L364.301 304.386" stroke="#FFDBDF" stroke-linecap="round" stroke-linejoin="round"/>
<path d="M307.53 259.929L300.082 253.829" stroke="#FFDBDF" stroke-linecap="round" stroke-linejoin="round"/>
<path d="M306.781 266.03L291.895 253.829" stroke="#FFDBDF" stroke-linecap="round" stroke-linejoin="round"/>
<path d="M298.584 266.03L283.697 253.829" stroke="#FFDBDF" stroke-linecap="round" stroke-linejoin="round"/>
<path d="M290.387 266.03L277.48 255.445" stroke="#FFDBDF" stroke-linecap="round" stroke-linejoin="round"/>
<path d="M282.2 266.03L277.48 262.166" stroke="#FFDBDF" stroke-linecap="round" stroke-linejoin="round"/>
<path d="M367.277 313.916L356.951 305.45" stroke="#FFDBDF" stroke-linecap="round" stroke-linejoin="round"/>
<path d="M397.266 283.276H412.537L432.32 290.342H397.266" stroke="#FFDBDF" stroke-linecap="round" stroke-linejoin="round"/>
<path d="M432.32 290.342V339.046H397.266" stroke="#FFDBDF" stroke-linecap="round" stroke-linejoin="round"/>
<path d="M432.32 299.872L443.818 304.386H432.32" stroke="#FFDBDF" stroke-linecap="round" stroke-linejoin="round"/>
<path d="M443.818 304.386V339.046H432.32" stroke="#FFDBDF" stroke-linecap="round" stroke-linejoin="round"/>
<path d="M455.809 286.814H422.43" stroke="#FFDBDF" stroke-linecap="round" stroke-linejoin="round"/>
<path d="M403.1 290.342V339.046" stroke="#FFDBDF" stroke-linecap="round" stroke-linejoin="round"/>
<path d="M246.771 275.481C254.979 275.481 268.122 280.94 277.481 296.994L283.393 301.025H246.771" stroke="#FFDBDF" stroke-linecap="round" stroke-linejoin="round"/>
<path d="M283.393 301.025V308.328H297.836" stroke="#FFDBDF" stroke-linecap="round" stroke-linejoin="round"/>
<path d="M277.481 296.994H246.771" stroke="#FFDBDF" stroke-linecap="round" stroke-linejoin="round"/>
<path d="M283.393 339.046H246.771" stroke="#FFDBDF" stroke-linecap="round" stroke-linejoin="round"/>
<path d="M277.481 253.829H246.771" stroke="#FFDBDF" stroke-linecap="round" stroke-linejoin="round"/>
<path d="M271.027 288.076V258.648" stroke="#FFDBDF" stroke-linecap="round" stroke-linejoin="round"/>
<path d="M264.506 258.648V282.123" stroke="#FFDBDF" stroke-linecap="round" stroke-linejoin="round"/>
<path d="M277.482 267.794H258.053V278.25" stroke="#FFDBDF" stroke-linecap="round" stroke-linejoin="round"/>
<path d="M253.126 267.794H246.762" stroke="#FFDBDF" stroke-linecap="round" stroke-linejoin="round"/>
<path d="M292.615 203.903C294.064 203.903 295.453 204.478 296.478 205.501C297.503 206.525 298.081 207.913 298.083 209.362V217.7H307.64V248.251" stroke="#FFDBDF" stroke-linecap="round" stroke-linejoin="round"/>
<path d="M246.771 215.029C255.639 215.029 272.88 219.503 277.481 238.051" stroke="#FFDBDF" stroke-linecap="round" stroke-linejoin="round"/>
<path d="M282.201 217.66V203.922H246.771" stroke="#FFDBDF" stroke-linecap="round" stroke-linejoin="round"/>
<path d="M307.531 195.486H246.771" stroke="#FFDBDF" stroke-linecap="round" stroke-linejoin="round"/>
<path d="M246.771 199.754H312.043" stroke="#FFDBDF" stroke-linecap="round" stroke-linejoin="round"/>
<path d="M307.531 199.754V217.66" stroke="#FFDBDF" stroke-linecap="round" stroke-linejoin="round"/>
<path d="M298.585 184.813H246.771" stroke="#FFDBDF" stroke-linecap="round" stroke-linejoin="round"/>
<path d="M250.693 152.419L246.771 145.393" stroke="#FFDBDF" stroke-linecap="round" stroke-linejoin="round"/>
<path d="M246.771 145.393V131.999" stroke="#FFDBDF" stroke-linecap="round" stroke-linejoin="round"/>
<path d="M346.684 256.509V237.834H307.6" stroke="#FFDBDF" stroke-linecap="round" stroke-linejoin="round"/>
<path d="M364.301 245.787V257.929" stroke="#FFDBDF" stroke-linecap="round" stroke-linejoin="round"/>
<path d="M342.832 232.906L346.684 231.773" stroke="#FFDBDF" stroke-linecap="round" stroke-linejoin="round"/>
<path d="M346.684 212.447H307.6" stroke="#FFDBDF" stroke-linecap="round" stroke-linejoin="round"/>
<path d="M336.91 208.712H307.6" stroke="#FFDBDF" stroke-linecap="round" stroke-linejoin="round"/>
<path d="M392.172 249.946L390.369 262.088" stroke="#FFDBDF" stroke-linecap="round" stroke-linejoin="round"/>
<path d="M412.537 283.276V279.748" stroke="#FFDBDF" stroke-linecap="round" stroke-linejoin="round"/>
<path d="M246.762 151.798H246.771H246.762Z" stroke="#FFDBDF" stroke-width="3" stroke-linecap="round" stroke-linejoin="round"/>
<path d="M435.276 279.787H412.537V262.048L407.887 230.512V178.072L411.089 173.637V170.188H407.887V146.743L401.483 117.177L395.079 146.743V170.149H391.877V173.598L395.079 178.033V230.512L392.202 249.907H390.399L371.758 242.574L364.33 245.748V234.621L350.842 230.512L346.684 231.734V212.447L336.911 208.712C336.911 208.712 328.428 199.754 312.043 199.754L307.531 195.486L302.27 184.813H298.585C298.585 184.813 285.669 157.051 246.762 151.798C207.865 157.051 194.948 184.813 194.948 184.813H191.263L186.002 195.486L181.49 199.754C165.105 199.754 156.623 208.712 156.623 208.712L146.849 212.447V231.773L142.691 230.551L129.233 234.621V245.787L121.804 242.614L103.164 249.946H101.361L98.5234 230.512V178.072L101.725 173.637V170.188H98.5234V146.743L92.1194 117.177L85.7154 146.743V170.149H82.5134V173.598L85.7154 178.033V230.512L81.0355 262.048V279.787H58.2569L37.7246 286.854V339.086H455.809V286.854L435.276 279.787Z" stroke="#FFDBDF" stroke-width="3" stroke-linecap="round" stroke-linejoin="round"/>
<path d="M597.84 147.176C598.825 145.452 596.569 139.292 596.569 139.292C596.569 139.292 594.312 145.452 595.298 147.176C592.835 150.567 593.938 151.306 595.662 153.149L594.766 201.872H598.372L597.475 153.149C599.199 151.306 600.303 150.567 597.84 147.176Z" fill="white"/>
<path d="M596.57 261.191H576.461" stroke="#FFDBDF" stroke-linecap="round" stroke-linejoin="round"/>
<path d="M578.057 271.164V264.512L596.569 270.553" stroke="#FFDBDF" stroke-linecap="round" stroke-linejoin="round"/>
<path d="M596.569 304.8H578.057" stroke="#FFDBDF" stroke-linecap="round" stroke-linejoin="round"/>
<path d="M596.57 276.466H576.451" stroke="#FFDBDF" stroke-linecap="round" stroke-linejoin="round"/>
<path d="M585.662 272.396C585.694 271.98 585.882 271.592 586.188 271.309C586.494 271.025 586.895 270.868 587.312 270.868C587.729 270.868 588.131 271.025 588.437 271.309C588.743 271.592 588.931 271.98 588.963 272.396V276.466H585.662V272.396Z" stroke="#FFDBDF" stroke-linecap="round" stroke-linejoin="round"/>
<path d="M596.57 289.889H576.451" stroke="#FFDBDF" stroke-linecap="round" stroke-linejoin="round"/>
<path d="M578.057 276.466L596.569 289.889" stroke="#FFDBDF" stroke-linecap="round" stroke-linejoin="round"/>
<path d="M596.569 276.466L578.057 289.889" stroke="#FFDBDF" stroke-linecap="round" stroke-linejoin="round"/>
<path d="M576.451 238.642H596.57" stroke="#FFDBDF" stroke-linecap="round" stroke-linejoin="round"/>
<path d="M595.051 244.93H589.041V261.191H595.051V244.93Z" stroke="#FFDBDF" stroke-linecap="round" stroke-linejoin="round"/>
<path d="M586.41 244.93H580.4V261.191H586.41V244.93Z" stroke="#FFDBDF" stroke-linecap="round" stroke-linejoin="round"/>
<path d="M592.953 206.741H596.569" stroke="#FFDBDF" stroke-linecap="round" stroke-linejoin="round"/>
<path d="M595.051 214.004V206.741" stroke="#FFDBDF" stroke-linecap="round" stroke-linejoin="round"/>
<path d="M591.484 214.004V206.741" stroke="#FFDBDF" stroke-linecap="round" stroke-linejoin="round"/>
<path d="M587.908 214.004V206.741" stroke="#FFDBDF" stroke-linecap="round" stroke-linejoin="round"/>
<path d="M594.766 201.872L595.672 153.149H596.568" stroke="#FFDBDF" stroke-linecap="round" stroke-linejoin="round"/>
<path d="M596.568 136.089V130.482" stroke="#FFDBDF" stroke-linecap="round" stroke-linejoin="round"/>
<path d="M597.634 219.907H595.516V222.026H597.634V219.907Z" stroke="#FFDBDF" stroke-linecap="round" stroke-linejoin="round"/>
<path d="M596.568 261.191H616.687" stroke="#FFDBDF" stroke-linecap="round" stroke-linejoin="round"/>
<path d="M615.081 271.164V264.512L596.568 270.553" stroke="#FFDBDF" stroke-linecap="round" stroke-linejoin="round"/>
<path d="M596.568 304.8H615.081V293.713" stroke="#FFDBDF" stroke-linecap="round" stroke-linejoin="round"/>
<path d="M596.568 276.466H616.687" stroke="#FFDBDF" stroke-linecap="round" stroke-linejoin="round"/>
<path d="M607.476 272.396C607.444 271.98 607.257 271.592 606.951 271.309C606.645 271.025 606.243 270.868 605.826 270.868C605.409 270.868 605.008 271.025 604.702 271.309C604.396 271.592 604.208 271.98 604.176 272.396V276.466H607.476V272.396Z" stroke="#FFDBDF" stroke-linecap="round" stroke-linejoin="round"/>
<path d="M596.568 289.889H616.687" stroke="#FFDBDF" stroke-linecap="round" stroke-linejoin="round"/>
<path d="M615.081 276.466L596.568 289.889" stroke="#FFDBDF" stroke-linecap="round" stroke-linejoin="round"/>
<path d="M596.568 276.466L615.081 289.889" stroke="#FFDBDF" stroke-linecap="round" stroke-linejoin="round"/>
<path d="M616.687 238.642H596.568" stroke="#FFDBDF" stroke-linecap="round" stroke-linejoin="round"/>
<path d="M598.096 261.191H604.105V244.93H598.096V261.191Z" stroke="#FFDBDF" stroke-linecap="round" stroke-linejoin="round"/>
<path d="M606.736 261.191H612.746V244.93H606.736V261.191Z" stroke="#FFDBDF" stroke-linecap="round" stroke-linejoin="round"/>
<path d="M600.174 206.741H596.568" stroke="#FFDBDF" stroke-linecap="round" stroke-linejoin="round"/>
<path d="M598.086 214.004V206.741" stroke="#FFDBDF" stroke-linecap="round" stroke-linejoin="round"/>
<path d="M601.662 214.004V206.741" stroke="#FFDBDF" stroke-linecap="round" stroke-linejoin="round"/>
<path d="M605.229 214.004V206.741" stroke="#FFDBDF" stroke-linecap="round" stroke-linejoin="round"/>
<path d="M598.381 201.872L597.475 153.149H596.568" stroke="#FFDBDF" stroke-linecap="round" stroke-linejoin="round"/>
<path d="M597.475 153.149C599.199 151.306 600.303 150.567 597.84 147.176C598.825 145.452 596.569 139.292 596.569 139.292C596.569 139.292 594.312 145.452 595.298 147.176C592.835 150.567 593.938 151.306 595.662 153.149" stroke="#FFDBDF" stroke-linecap="round" stroke-linejoin="round"/>
<path d="M615.082 304.8H675.349" stroke="#FFDBDF" stroke-linecap="round" stroke-linejoin="round"/>
<path d="M626.708 314.034L615.742 319.208H626.708" stroke="#FFDBDF" stroke-linecap="round" stroke-linejoin="round"/>
<path d="M578.066 312.191H594.559L604.175 308.121H626.707" stroke="#FFDBDF" stroke-linecap="round" stroke-linejoin="round"/>
<path d="M615.742 319.208H575.85" stroke="#FFDBDF" stroke-linecap="round" stroke-linejoin="round"/>
<path d="M619.062 319.208V333.459" stroke="#FFDBDF" stroke-linecap="round" stroke-linejoin="round"/>
<path d="M620.876 333.459H617.26V339.046H620.876V333.459Z" stroke="#FFDBDF" stroke-linecap="round" stroke-linejoin="round"/>
<path d="M623.012 339.046V324.914H626.706" stroke="#FFDBDF" stroke-linecap="round" stroke-linejoin="round"/>
<path d="M606.5 324.914H601.988V333.459H606.5V324.914Z" stroke="#FFDBDF" stroke-linecap="round" stroke-linejoin="round"/>
<path d="M601.988 324.914L604.254 322.697L606.51 324.914" stroke="#FFDBDF" stroke-linecap="round" stroke-linejoin="round"/>
<path d="M597.555 324.914H593.043V333.459H597.555V324.914Z" stroke="#FFDBDF" stroke-linecap="round" stroke-linejoin="round"/>
<path d="M593.043 324.914L595.299 322.697L597.555 324.914" stroke="#FFDBDF" stroke-linecap="round" stroke-linejoin="round"/>
<path d="M588.598 324.914H584.086V333.459H588.598V324.914Z" stroke="#FFDBDF" stroke-linecap="round" stroke-linejoin="round"/>
<path d="M584.096 324.914L586.352 322.697L588.608 324.914" stroke="#FFDBDF" stroke-linecap="round" stroke-linejoin="round"/>
<path d="M626.707 314.034L637.663 319.208H626.707" stroke="#FFDBDF" stroke-linecap="round" stroke-linejoin="round"/>
<path d="M675.358 312.191H658.845L649.229 308.121H626.707" stroke="#FFDBDF" stroke-linecap="round" stroke-linejoin="round"/>
<path d="M637.662 319.208H677.564" stroke="#FFDBDF" stroke-linecap="round" stroke-linejoin="round"/>
<path d="M634.332 319.208V333.459" stroke="#FFDBDF" stroke-linecap="round" stroke-linejoin="round"/>
<path d="M632.531 339.046H636.146V333.459H632.531V339.046Z" stroke="#FFDBDF" stroke-linecap="round" stroke-linejoin="round"/>
<path d="M630.401 339.046V324.914H626.707" stroke="#FFDBDF" stroke-linecap="round" stroke-linejoin="round"/>
<path d="M646.905 333.468H651.418V324.924H646.905V333.468Z" stroke="#FFDBDF" stroke-linecap="round" stroke-linejoin="round"/>
<path d="M651.417 324.914L649.151 322.697L646.895 324.914" stroke="#FFDBDF" stroke-linecap="round" stroke-linejoin="round"/>
<path d="M655.851 333.468H660.363V324.924H655.851V333.468Z" stroke="#FFDBDF" stroke-linecap="round" stroke-linejoin="round"/>
<path d="M660.362 324.914L658.106 322.697L655.85 324.914" stroke="#FFDBDF" stroke-linecap="round" stroke-linejoin="round"/>
<path d="M664.806 333.468H669.318V324.924H664.806V333.468Z" stroke="#FFDBDF" stroke-linecap="round" stroke-linejoin="round"/>
<path d="M669.319 324.914L667.053 322.697L664.797 324.914" stroke="#FFDBDF" stroke-linecap="round" stroke-linejoin="round"/>
<path d="M675.348 304.8L667.584 293.713" stroke="#0019FF" stroke-linecap="round" stroke-linejoin="round"/>
<path d="M668.678 304.8L660.914 293.713" stroke="#FFDBDF" stroke-linecap="round" stroke-linejoin="round"/>
<path d="M662.008 304.8L654.244 293.713" stroke="#FFDBDF" stroke-linecap="round" stroke-linejoin="round"/>
<path d="M655.338 304.8L647.574 293.713" stroke="#FFDBDF" stroke-linecap="round" stroke-linejoin="round"/>
<path d="M648.668 304.8L640.904 293.713" stroke="#FFDBDF" stroke-linecap="round" stroke-linejoin="round"/>
<path d="M641.998 304.8L634.234 293.713" stroke="#FFDBDF" stroke-linecap="round" stroke-linejoin="round"/>
<path d="M635.318 304.8L627.564 293.713" stroke="#FFDBDF" stroke-linecap="round" stroke-linejoin="round"/>
<path d="M628.648 304.8L620.895 293.713" stroke="#FFDBDF" stroke-linecap="round" stroke-linejoin="round"/>
<path d="M621.979 304.8L615.082 294.935" stroke="#FFDBDF" stroke-linecap="round" stroke-linejoin="round"/>
<path d="M675.289 319.208L670.383 312.201" stroke="#0019FF" stroke-linecap="round" stroke-linejoin="round"/>
<path d="M668.619 319.208L663.713 312.201" stroke="#FFDBDF" stroke-linecap="round" stroke-linejoin="round"/>
<path d="M661.948 319.208L656.273 311.097" stroke="#FFDBDF" stroke-linecap="round" stroke-linejoin="round"/>
<path d="M655.279 319.208L647.516 308.121" stroke="#FFDBDF" stroke-linecap="round" stroke-linejoin="round"/>
<path d="M648.609 319.208L640.846 308.121" stroke="#FFDBDF" stroke-linecap="round" stroke-linejoin="round"/>
<path d="M641.939 319.208L634.176 308.121" stroke="#FFDBDF" stroke-linecap="round" stroke-linejoin="round"/>
<path d="M634.077 317.523L627.506 308.121" stroke="#FFDBDF" stroke-linecap="round" stroke-linejoin="round"/>
<path d="M578.018 319.208L582.924 312.201" stroke="#FFDBDF" stroke-linecap="round" stroke-linejoin="round"/>
<path d="M584.688 319.208L589.594 312.201" stroke="#FFDBDF" stroke-linecap="round" stroke-linejoin="round"/>
<path d="M591.357 319.208L597.032 311.097" stroke="#FFDBDF" stroke-linecap="round" stroke-linejoin="round"/>
<path d="M598.027 319.208L605.791 308.121" stroke="#FFDBDF" stroke-linecap="round" stroke-linejoin="round"/>
<path d="M604.697 319.208L612.461 308.121" stroke="#FFDBDF" stroke-linecap="round" stroke-linejoin="round"/>
<path d="M611.377 319.208L619.131 308.121" stroke="#FFDBDF" stroke-linecap="round" stroke-linejoin="round"/>
<path d="M619.229 317.523L625.8 308.121" stroke="#FFDBDF" stroke-linecap="round" stroke-linejoin="round"/>
<path d="M588.154 214.004H596.568" stroke="#FFDBDF" stroke-linecap="round" stroke-linejoin="round"/>
<path d="M604.982 214.004H596.568" stroke="#FFDBDF" stroke-linecap="round" stroke-linejoin="round"/>
<path d="M681.959 319.208L677.033 312.201H675.329V304.81L667.565 293.723H615.082V271.164H615.21L625.308 261.191H616.688V238.642H619.762C618.692 238.21 617.724 237.56 616.918 236.734C616.112 235.907 615.487 234.923 615.082 233.843C612.747 226.323 611.88 225.574 608.185 221.139C604.49 216.705 605.003 214.004 605.003 214.004H608.185V206.741H600.195V203.045L596.579 200.7L592.963 203.045V206.741H584.983V214.004H588.185C588.185 214.004 588.717 216.705 585.002 221.139C581.288 225.574 580.431 226.323 578.106 233.843C577.702 234.924 577.077 235.909 576.271 236.736C575.466 237.562 574.496 238.211 573.426 238.642H576.5V261.191H567.869L577.968 271.164H578.096V304.8V312.191H576.283L571.357 319.198H575.85V339.037H677.575V319.208H681.959Z" stroke="#FFDBDF" stroke-width="3" stroke-linecap="round" stroke-linejoin="round"/>
<path d="M595.593 157.051H579.908V165.349H595.426" stroke="#FFDBDF" stroke-linecap="round" stroke-linejoin="round"/>
<path d="M678.027 242.959C707.279 324.756 677.722 324.825 678.027 324.756C678.332 324.845 648.775 324.756 678.027 242.959Z" fill="white" stroke="#FFDBDF" stroke-miterlimit="10"/>
<path d="M678.018 339.046V286.903" stroke="#FFDBDF" stroke-linecap="round" stroke-linejoin="round"/>
<path d="M678.019 324.737C678.325 324.825 648.767 324.737 678.019 242.939" stroke="#FFDBDF" stroke-width="3" stroke-linecap="round" stroke-linejoin="round"/>
<path d="M678.028 324.737C677.722 324.825 707.28 324.737 678.028 242.939" stroke="#FFDBDF" stroke-width="3" stroke-linecap="round" stroke-linejoin="round"/>
<path d="M144.691 238.77C143.06 238.77 141.445 239.092 139.938 239.716C138.432 240.341 137.063 241.257 135.91 242.411C134.757 243.565 133.843 244.935 133.219 246.443C132.596 247.95 132.276 249.566 132.277 251.198H157.115C157.115 247.902 155.806 244.741 153.476 242.41C151.146 240.08 147.986 238.77 144.691 238.77Z" fill="white" stroke="#FFDBDF" stroke-miterlimit="10"/>
<path d="M169.529 238.77C167.898 238.77 166.283 239.092 164.776 239.716C163.27 240.341 161.901 241.257 160.748 242.411C159.595 243.565 158.681 244.935 158.057 246.443C157.434 247.95 157.114 249.566 157.115 251.198H181.953C181.955 249.565 181.634 247.949 181.01 246.44C180.386 244.932 179.471 243.561 178.317 242.407C177.163 241.253 175.793 240.338 174.285 239.714C172.777 239.089 171.161 238.769 169.529 238.77Z" fill="white" stroke="#FFDBDF" stroke-miterlimit="10"/>
<path d="M142.859 256.716C142.199 257.934 141.784 259.269 141.64 260.646C141.495 262.024 141.623 263.416 142.017 264.744C142.41 266.072 143.061 267.309 143.932 268.386C144.804 269.462 145.879 270.356 147.096 271.016L157.165 252.479C155.948 251.816 154.612 251.4 153.234 251.255C151.856 251.11 150.463 251.237 149.134 251.631C147.805 252.024 146.567 252.676 145.491 253.549C144.414 254.421 143.52 255.498 142.859 256.716Z" fill="white" stroke="#FFDBDF" stroke-miterlimit="10"/>
<path d="M171.431 256.716C172.762 259.175 173.064 262.062 172.27 264.743C171.475 267.424 169.65 269.68 167.194 271.016L157.125 252.479C158.342 251.816 159.678 251.4 161.056 251.255C162.434 251.11 163.827 251.237 165.156 251.631C166.485 252.024 167.723 252.676 168.8 253.549C169.876 254.421 170.77 255.498 171.431 256.716Z" fill="white" stroke="#FFDBDF" stroke-miterlimit="10"/>
<path d="M144.691 238.77C143.06 238.77 141.445 239.092 139.938 239.716C138.432 240.341 137.063 241.257 135.91 242.411C134.757 243.565 133.843 244.935 133.219 246.443C132.596 247.95 132.276 249.566 132.277 251.198H157.115C157.115 247.902 155.806 244.741 153.476 242.41C151.146 240.08 147.986 238.77 144.691 238.77V238.77Z" stroke="#FFDBDF" stroke-width="3" stroke-linecap="round" stroke-linejoin="round"/>
<path d="M169.529 238.77C167.898 238.77 166.283 239.092 164.776 239.716C163.27 240.341 161.901 241.257 160.748 242.411C159.595 243.565 158.681 244.935 158.057 246.443C157.434 247.95 157.114 249.566 157.115 251.198H181.953C181.955 249.565 181.634 247.949 181.01 246.44C180.386 244.932 179.471 243.561 178.317 242.407C177.163 241.253 175.793 240.338 174.285 239.714C172.777 239.089 171.161 238.769 169.529 238.77Z" stroke="#FFDBDF" stroke-width="3" stroke-linecap="round" stroke-linejoin="round"/>
<path d="M142.859 256.716C142.199 257.934 141.784 259.269 141.64 260.646C141.495 262.024 141.623 263.416 142.017 264.744C142.41 266.072 143.061 267.309 143.932 268.386C144.804 269.462 145.879 270.356 147.096 271.016L157.165 252.479C155.948 251.816 154.612 251.4 153.234 251.255C151.856 251.11 150.463 251.237 149.134 251.631C147.805 252.024 146.567 252.676 145.491 253.549C144.414 254.421 143.52 255.498 142.859 256.716V256.716Z" stroke="#FFDBDF" stroke-width="3" stroke-linecap="round" stroke-linejoin="round"/>
<path d="M171.431 256.716C172.762 259.175 173.064 262.062 172.27 264.743C171.475 267.424 169.65 269.68 167.194 271.016L157.125 252.479C158.342 251.816 159.678 251.4 161.056 251.255C162.434 251.11 163.827 251.237 165.156 251.631C166.485 252.024 167.723 252.676 168.8 253.549C169.876 254.421 170.77 255.498 171.431 256.716V256.716Z" stroke="#FFDBDF" stroke-width="3" stroke-linecap="round" stroke-linejoin="round"/>
<path d="M157.115 339.046V251.809" stroke="#FFDBDF" stroke-linecap="round" stroke-linejoin="round"/>
<path d="M12.4239 199.32C10.7887 199.319 9.16939 199.641 7.6589 200.267C6.1484 200.894 4.77653 201.812 3.6221 202.971C2.46766 204.129 1.55339 205.504 0.931816 207.017C0.310244 208.53 -0.00639169 210.151 9.77664e-05 211.787H24.838C24.8431 210.152 24.5259 208.533 23.9045 207.021C23.2831 205.51 22.3696 204.135 21.2165 202.977C20.0634 201.819 18.6932 200.9 17.1844 200.273C15.6757 199.645 14.0579 199.321 12.4239 199.32V199.32Z" stroke="#FFDBDF" stroke-miterlimit="10"/>
<path d="M37.2616 199.32C33.9692 199.32 30.8117 200.628 28.4836 202.957C26.1556 205.286 24.8477 208.444 24.8477 211.737H49.6854C49.6854 210.106 49.3639 208.49 48.7395 206.983C48.115 205.476 47.1997 204.107 46.0459 202.954C44.8922 201.8 43.5225 200.886 42.0152 200.262C40.508 199.639 38.8927 199.319 37.2616 199.32V199.32Z" stroke="#FFDBDF" stroke-miterlimit="10"/>
<path d="M10.5418 217.256C9.20707 219.716 8.90357 222.605 9.69802 225.289C10.4925 227.972 12.3198 230.23 14.7783 231.566L24.8474 213.019C22.3884 211.684 19.5001 211.38 16.8174 212.175C14.1347 212.969 11.8774 214.797 10.5418 217.256V217.256Z" stroke="#FFDBDF" stroke-miterlimit="10"/>
<path d="M39.1434 217.256C40.4781 219.716 40.7815 222.605 39.9871 225.289C39.1926 227.972 37.3653 230.23 34.9069 231.566L24.8477 213.019C27.3057 211.687 30.1916 211.385 32.8719 212.179C35.5522 212.974 37.8077 214.8 39.1434 217.256Z" stroke="#FFDBDF" stroke-miterlimit="10"/>
<path d="M12.4239 199.32C10.7887 199.319 9.16939 199.641 7.6589 200.267C6.14841 200.894 4.77653 201.812 3.6221 202.971C2.46766 204.129 1.55339 205.504 0.931816 207.017C0.310244 208.53 -0.00639169 210.151 9.77664e-05 211.787H24.8379C24.8431 210.152 24.5259 208.533 23.9045 207.021C23.2831 205.51 22.3696 204.135 21.2165 202.977C20.0634 201.819 18.6932 200.9 17.1844 200.273C15.6757 199.645 14.0579 199.321 12.4239 199.32Z" fill="white" stroke="#FFDBDF" stroke-width="3" stroke-linecap="round" stroke-linejoin="round"/>
<path d="M37.2616 199.32C33.9692 199.32 30.8117 200.628 28.4836 202.957C26.1556 205.286 24.8477 208.444 24.8477 211.737H49.6854C49.6854 210.106 49.3639 208.49 48.7395 206.983C48.115 205.476 47.1997 204.107 46.0459 202.954C44.8922 201.8 43.5225 200.886 42.0152 200.262C40.508 199.639 38.8927 199.319 37.2616 199.32Z" fill="white" stroke="#FFDBDF" stroke-width="3" stroke-linecap="round" stroke-linejoin="round"/>
<path d="M10.5418 217.256C9.20707 219.716 8.90357 222.605 9.69802 225.289C10.4925 227.972 12.3198 230.23 14.7783 231.566L24.8474 213.019C22.3884 211.684 19.5001 211.38 16.8174 212.175C14.1347 212.969 11.8774 214.797 10.5418 217.256Z" fill="white" stroke="#FFDBDF" stroke-width="3" stroke-linecap="round" stroke-linejoin="round"/>
<path d="M39.1434 217.256C40.4781 219.716 40.7815 222.605 39.9871 225.289C39.1926 227.972 37.3653 230.23 34.9069 231.566L24.8477 213.019C27.3057 211.687 30.1916 211.385 32.8719 212.179C35.5522 212.974 37.8077 214.8 39.1434 217.256Z" fill="white" stroke="#FFDBDF" stroke-width="3" stroke-linecap="round" stroke-linejoin="round"/>
<path d="M24.8477 339.046V212.358" stroke="#FFDBDF" stroke-linecap="round" stroke-linejoin="round"/>
<path d="M533.347 315.532C533.347 315.532 571.859 288.775 549.396 278.082C559.022 251.326 544.884 227.821 533.347 227.821C521.809 227.821 507.662 251.365 517.297 278.082C494.824 288.775 533.347 315.532 533.347 315.532Z" fill="white" stroke="#FFDBDF" stroke-miterlimit="10"/>
<path d="M533.346 315.532C533.346 315.532 494.824 288.775 517.297 278.082C507.662 251.326 521.8 227.821 533.346 227.821" stroke="#FFDBDF" stroke-width="3" stroke-linecap="round" stroke-linejoin="round"/>
<path d="M533.346 315.532C533.346 315.532 571.859 288.775 549.395 278.082C559.021 251.326 544.883 227.821 533.346 227.821" stroke="#FFDBDF" stroke-width="3" stroke-linecap="round" stroke-linejoin="round"/>
<path d="M533.346 245.758V339.046" stroke="#FFDBDF" stroke-linecap="round" stroke-linejoin="round"/>
<path d="M544.883 289.583L533.346 301.203" stroke="#FFDBDF" stroke-linecap="round" stroke-linejoin="round"/>
<path d="M521.799 289.583L533.346 301.203" stroke="#FFDBDF" stroke-linecap="round" stroke-linejoin="round"/>
</svg>
